  0 1UEF -> LIG_PTB_Phospho_1 Small (1057 - 1063) / (1056 - 1065) (.[^P].NP.(Y))|(.[ILVMFY].N..(Y)) TWIENKLYGM

  1 1UEF -> LIG_PTB_Phospho_1 Large (1057 - 1063) / (1056 - 1115) (.[^P].NP.(Y))|(.[ILVMFY].N..(Y)) TWIENKLYGM...AAKLMDTFDS

  2 3LNY -> LIG_PDZ_Class_1 Small (1596 - 1601) / (1596 - 1601) ...[ST].[ACVILF]$ EQVSAV

  3 2O8G -> DOC_PP1_SILK_1 Large (12 - 17) / (12 - 168) .[GS]IL[KR][^DE] KGILKNKTSA...RQLISKDLHD

  4 2O8G -> DOC_PP1_SILK_1 Large (12 - 17) / (12 - 169) .[GS]IL[KR][^DE] KGILKNKTSA...QLISKDLHDD

  5 3TEI -> DOC_MAPK_RevD_3 Small (712 - 726) / (712 - 728) [LIVMPFA].[LIV].{1,2}[LIVMP].{4,6}[LIV]..[RK][RK] PQLKPIESSILAQRRVR

  6 3HSV -> DEG_SPOP_SBC_1 Small (171 - 175) / (172 - 182) [AVP].[ST][ST][ST] DSTTEGTPADG

  7 1JGN -> LIG_PAM2_1 Small (109 - 121) / (106 - 127) ..[LFP][NS][PIVTAFL].A..(([FY].[PYLF])|(W..)). VVKSNLNPNAKEFVPGVKYGNI

  8 4QQI -> LIG_ANK_PxLPxL_1 Small (91 - 98) / (86 - 101) P.LP.[IL].{1,3}[VLF] AFVHMPTLPNLDFHKT

  9 4CY1 -> LIG_WD40_WDR5_WIN_1 Small (590 - 596) / (586 - 599) [SCA]AR[STCA][EQR][PGILVM][HYFQNKRLVI] GTCVAARTRPVLSC

 10 4CY1 -> LIG_WD40_WDR5_WIN_1 Small (590 - 596) / (586 - 599) [SCA]AR[STCA][EQR][PGILVM][HYFQNKRLVI] GTCVAARTRPVLSC

 11 4CY2 -> LIG_WD40_WDR5_VDV_1 Small (410 - 413) / (408 - 416) [ED].{0,3}[VIL]D[VI] SDDLDVVGD

 12 4CY3 -> LIG_WD40_WDR5_WIN_2 Small (719 - 725) / (718 - 726) [STCA][CSAGV]R[STCAV][EQR][PGALV][LFYHRK] LCSRARPLV

 13 4CY5 -> LIG_WD40_WDR5_VDV_1 Small (159 - 162) / (158 - 165) [ED].{0,3}[VIL]D[VI] DEIDVVSP

 14 2W84 -> LIG_Pex14_1 Small (118 - 122) / (108 - 127) W...[FY] GVADLALSENWAQEFLAAGD

 15 2PEH -> LIG_ULM_U2AF65_1 Small (333 - 339) / (334 - 342) [KR]{1,4}[KR].[KR]W. RKSRWDETP

 16 2PEH -> LIG_ULM_U2AF65_1 Small (333 - 339) / (333 - 342) [KR]{1,4}[KR].[KR]W. KRKSRWDETP

 17 2A0T -> LIG_FHA_1 Small (303 - 309) / (301 - 310) ..(T)..[ILV]. NDPDTLEIYS

 18 2LB1 -> LIG_WW_1 Small (224 - 227) / (221 - 233) PP.Y DTPPPAYLPPEDP

 19 3DOW -> LIG_LIR_Gen_1 Small (199 - 203) / (199 - 205) [EDST].{0,2}[WFY]..[ILV] DWDFLPP

 20 2AWW -> LIG_PDZ_Class_1 Small (902 - 907) / (904 - 907) ...[ST].[ACVILF]$ ATGL

 21 3N00 -> LIG_CORNRBOX Small (2051 - 2059) / (2045 - 2064) L[^P]{2,2}[HI]I[^P]{2,2}[IAV][IL] THRLITLADHICQIITQDFA

 22 1GH6 -> LIG_Rb_LxCxE_1 Large (101 - 119) / (1 - 117) ([DEST]|^).{0,4}[LI].C.E.{1,4}[FLMIVAWPHY].{0,8}([DEST]|$) MDKVLNREES...EMPSSDDEAT

 23 1X2R -> DEG_Kelch_Keap1_1 Small (77 - 82) / (76 - 84) [DNS].[DES][TNS]GE LDEETGEFL

 24 3P1N -> LIG_14-3-3_CterR_2 Small (371 - 374) / (369 - 374) R[^DE]{0,2}[^DEPG]([ST])[^P]{0,1}$ KRRKSV

 25 1YCR -> DEG_MDM2_SWIB_1 Small (19 - 26) / (17 - 29) F[^P]{3}W[^P]{2,3}[VIL] ETFSDLWKLLPEN

 26 3F2O -> LIG_SPRY_1 Small (184 - 189) / (184 - 198) [ED][LIV]NNN[^P] DINNNNNIVEDVERK

 27 3F2O -> LIG_SPRY_1 Small (184 - 189) / (184 - 201) [ED][LIV]NNN[^P] DINNNNNIVEDVERKREF

 28 3VXW -> LIG_LIR_Gen_1 Small (85 - 89) / (85 - 90) [EDST].{0,2}[WFY]..[ILV] SWQAIQ

 29 1MV0 -> DEG_SCF_FBW7_1 Small (55 - 62) / (55 - 68) [LIVMP].{0,2}(T)P..([ST]) LLPTPPLSPSRRSG

 30 1MV0 -> LIG_SH3_2 Small (60 - 65) / (55 - 68) P..P.[KR] LLPTPPLSPSRRSG

 31 2R03 -> LIG_LYPXL_S_1 Small (457 - 461) / (456 - 463) [LM]YP.[LI] NLYPDLSE

 32 3BU8 -> LIG_TRFH_1 Small (258 - 262) / (257 - 271) [FY].L.P HFNLAPLGRRRVQSQ

 33 3BU8 -> LIG_TRFH_1 Small (258 - 262) / (257 - 266) [FY].L.P HFNLAPLGRR

 34 1LQB -> DEG_ODPH_VHL_1 Small (562 - 574) / (560 - 577) [IL]A(P).{6,8}[FLIVM].[FLIVM] EMLAPYIPMDDDFQLRSF

 35 1K2N -> LIG_FHA_1 Small (601 - 607) / (599 - 607) ..(T)..[ILV]. EVELTQELP

 36 3M1F -> LIG_Actin_WH2_2 Small (135 - 151) / (130 - 151) [^R]..((.[ILMVF])|([ILMVF].))[^P][^P][ILVM].{4,7}L(([KR].)|(NK))[VATIGS] SVNEDHSKLMEQIRQGVKLKSA

 37 2K00 -> LIG_PTB_Apo_2 Small (374 - 381) / (367 - 381) (.[^P].NP.[FY].)|(.[ILVMFY].N..[FY].) GRSKESGWVENEIYY

 38 1S4Z -> LIG_HP1_1 Small (222 - 226) / (209 - 238) P[MVLIRWY]V[MVLIAS][LM] WSKAGDLLFIEKVPVVVLEDILATKPSIAS

 39 2EJY -> LIG_PDZ_Class_2 Small (123 - 128) / (123 - 128) ...[VLIFY].[ACVILF]$ RKEYFI

 40 2JK9 -> LIG_SPRY_1 Small (68 - 73) / (67 - 74) [ED][LIV]NNN[^P] NELNNNLP

 41 1M2Z -> LIG_NRBOX Small (744 - 750) / (734 - 754) [^P]L[^P][^P]LL[^P] PVSPKKKENALLRYLLDKDDT

 42 1M2Z -> LIG_NRBOX Small (744 - 750) / (734 - 754) [^P]L[^P][^P]LL[^P] PVSPKKKENALLRYLLDKDDT

 43 4IHL -> LIG_14-3-3_CanoR_1 Small (231 - 235) / (230 - 263) R[^DE]{0,2}[^DEPG]([ST])(([FWYLMV].)|([^PRIKGN]P)|([^PRIKGN].{2,4}[VILMFWYP])) HRYSTPHAFTFNTSSPSSEGSLSQRQRSTSTPNV

 44 4IHL -> LIG_14-3-3_CanoR_1 Small (254 - 263) / (230 - 263) R[^DE]{0,2}[^DEPG]([ST])(([FWYLMV].)|([^PRIKGN]P)|([^PRIKGN].{2,4}[VILMFWYP])) HRYSTPHAFTFNTSSPSSEGSLSQRQRSTSTPNV

 45 2EU0 -> LIG_SH2_SRC Small (145 - 148) / (143 - 148) (Y)[QDEVAIL][DENPYHI][IPVGAHS] ADYEPP

 46 4GGD -> DEG_APCC_KENBOX_2 Small (25 - 29) / (24 - 30) .KEN. LSKENVQ

 47 4GGD -> DEG_APCC_KENBOX_2 Small (25 - 29) / (23 - 30) .KEN. ELSKENVQ

 48 2AST -> DEG_SCF_SKP2-CKS1_1 Small (183 - 190) / (181 - 190) ..[DE].(T)P.K AGSVEQTPKK

 49 1H28 -> DOC_CYCLIN_RxL_1 Small (655 - 664) / (654 - 663) (.|([KRH].{0,3}))[^EDWNSG][^D][RK][^D]L.{0,1}[FLMP].{0,3}[EDST] GSAKRRLFGE

 50 1H28 -> DOC_CYCLIN_RxL_1 Small (655 - 664) / (656 - 663) (.|([KRH].{0,3}))[^EDWNSG][^D][RK][^D]L.{0,1}[FLMP].{0,3}[EDST] AKRRLFGE

 51 2ASQ -> LIG_SUMO_SIM_par_1 Small (468 - 473) / (466 - 479) [DEST]{0,5}.[VILPTM][VIL][DESTVILMA][VIL].{0,1}[DEST]{1,10} KVDVIDLTIESSSD

 52 1H25 -> DOC_CYCLIN_RxL_1 Small (870 - 880) / (869 - 878) (.|([KRH].{0,3}))[^EDWNSG][^D][RK][^D]L.{0,1}[FLMP].{0,3}[EDST] PKPLKKLRFD

 53 1H24 -> DOC_CYCLIN_RxL_1 Small (87 - 97) / (87 - 95) (.|([KRH].{0,3}))[^EDWNSG][^D][RK][^D]L.{0,1}[FLMP].{0,3}[EDST] PVKRRLDLE

 54 1H27 -> DOC_CYCLIN_RxL_1 Small (27 - 37) / (30 - 35) (.|([KRH].{0,3}))[^EDWNSG][^D][RK][^D]L.{0,1}[FLMP].{0,3}[EDST] RNLFGP

 55 1H26 -> DOC_CYCLIN_RxL_1 Small (378 - 388) / (378 - 386) (.|([KRH].{0,3}))[^EDWNSG][^D][RK][^D]L.{0,1}[FLMP].{0,3}[EDST] SRHKKLMFK

 56 1CZZ -> LIG_TRAF2_1 Small (250 - 253) / (250 - 256) [PSAT].[QE]E PVQETLH

 57 1CZZ -> LIG_TRAF2_1 Small (250 - 253) / (250 - 258) [PSAT].[QE]E PVQETLHGC

 58 1X11 -> LIG_PTB_Apo_2 Small (756 - 763) / (754 - 765) (.[^P].NP.[FY].)|(.[ILVMFY].N..[FY].) QNGYENPTYKFF

 59 1X11 -> LIG_PTB_Apo_2 Small (756 - 763) / (754 - 766) (.[^P].NP.[FY].)|(.[ILVMFY].N..[FY].) QNGYENPTYKFFE

 60 1JUQ -> TRG_LysEnd_GGAAcLL_1 Small (271 - 277) / (270 - 277) D..LL.{1,2}$ RDDHLLPM

 61 1JUQ -> TRG_LysEnd_GGAAcLL_1 Small (271 - 277) / (271 - 275) D..LL.{1,2}$ DDHLL

 62 1JUQ -> TRG_LysEnd_GGAAcLL_1 Small (271 - 277) / (271 - 277) D..LL.{1,2}$ DDHLLPM

 63 1JUQ -> TRG_LysEnd_GGAAcLL_1 Small (271 - 277) / (271 - 275) D..LL.{1,2}$ DDHLL

 64 3OBQ -> LIG_PTAP_UEV_1 Small (347 - 352) / (346 - 354) .P[TS]AP. PTPSAPVPL

 65 3D9T -> LIG_BIR_III_2 Small (315 - 319) / (316 - 319) DA.P. ATPF

 66 3D9T -> LIG_BIR_III_2 Small (315 - 319) / (316 - 321) DA.P. ATPFQE

 67 2Z32 -> DEG_Kelch_Keap1_1 Small (41 - 46) / (40 - 48) [DNS].[DES][TNS]GE QNEENGEQE

 68 3TJ5 -> LIG_Vh1_VBS_1 Large (413 - 431) / (255 - 434) [VMIL][MILFYPA][^P][TASKHC][AVSC][^P][^P][ILVM][^P][^P][^P][LMTVI][^P][^P][LMV][ILVMA][^P][^P][AIVLMT] GSMHLSMVAL...QYLLNYVNAG

 69 2GWW -> LIG_Vh1_VBS_1 Small (612 - 630) / (610 - 631) [VMIL][MILFYPA][^P][TASKHC][AVSC][^P][^P][ILVM][^P][^P][^P][LMTVI][^P][^P][LMV][ILVMA][^P][^P][AIVLMT] NNIYKAAKDVTTSLSKVLKNIN

 70 1IRS -> LIG_PTB_Phospho_1 Small (491 - 497) / (489 - 499) (.[^P].NP.(Y))|(.[ILVMFY].N..(Y)) LVIAGNPAYRS

 71 3TWU -> DOC_ANK_TNKS_1 Small (77 - 84) / (76 - 88) .R..[PGAV][DEIP]G. VARPPPIGAEVPD

 72 1ZUB -> LIG_PDZ_Class_2 Small (943 - 948) / (943 - 948) ...[VLIFY].[ACVILF]$ EEGIWA

 73 3MHR -> LIG_14-3-3_CanoR_1 Small (124 - 129) / (124 - 133) R[^DE]{0,2}[^DEPG]([ST])(([FWYLMV].)|([^PRIKGN]P)|([^PRIKGN].{2,4}[VILMFWYP])) RAHSSPASLQ

 74 1UTC -> LIG_Clathr_ClatBox_2 Small (380 - 385) / (379 - 385) .[NP]W[DES].W TLPWDLW

 75 1UTC -> LIG_Clathr_ClatBox_2 Small (380 - 385) / (379 - 385) .[NP]W[DES].W TLPWDLW

 76 1OBZ -> LIG_PDZ_Class_1 Small (415 - 420) / (417 - 420) ...[ST].[ACVILF]$ DSVF

 77 1OBX -> LIG_PDZ_Class_1 Small (415 - 420) / (417 - 420) ...[ST].[ACVILF]$ DSVF

 78 1OBY -> LIG_PDZ_Class_2 Small (193 - 198) / (193 - 198) ...[VLIFY].[ACVILF]$ TNEFYA

 79 1OBY -> LIG_PDZ_Class_2 Small (193 - 198) / (194 - 198) ...[VLIFY].[ACVILF]$ NEFYA

 80 2KXH -> LIG_NBox_RRM_1 Small (31 - 41) / (22 - 52) F..A[ILV]..A..[ILV] GGGGGVNDAFKDALQRARQIAAKIGGDAGTS

 81 3UAL -> LIG_14-3-3_CanoR_1 Small (31 - 36) / (31 - 38) R[^DE]{0,2}[^DEPG]([ST])(([FWYLMV].)|([^PRIKGN]P)|([^PRIKGN].{2,4}[VILMFWYP])) RSFSEPFG

 82 3O71 -> DOC_MAPK_DCC_7 Small (1146 - 1155) / (1149 - 1156) [RK].{2,4}[LIVP]P.[LIV].[LIVMF]|[RK].{2,4}[LIVP].P[LIV].[LIVMF] RPPDLWIH

 83 3ZFW -> LIG_KLC1_WD_1 Small (205 - 214) / (203 - 213) [LMTAFSRI][^KRG]W[DE].{3,5}[LIVMFPA] TNLEWDDSAIA

 84 3ZFW -> LIG_KLC1_WD_1 Small (205 - 214) / (203 - 212) [LMTAFSRI][^KRG]W[DE].{3,5}[LIVMFPA] TNLEWDDSAI

 85 1EJY -> TRG_NLS_Bipartite_1 Small (155 - 171) / (155 - 170) [KR][KR].{7,15}[^DE]((K[RK])|(RK))(([^DE][KR])|([KR][^DE]))[^DE] KRPAATKKAGQAKKKK

 86 2L53 -> LIG_CaM_IQ_9 Large (1902 - 1921) / (613 - 1927) [ACLIVTM][^P][^P][ILVMFCT]Q[^P][^P][^P][RK][^P]{4,5}[RKQ][^P][^P] SPGSHLLRPV...QRSLKHASFL

 87 1LM8 -> DEG_ODPH_VHL_1 Small (562 - 574) / (561 - 575) [IL]A(P).{6,8}[FLIVM].[FLIVM] MLAPYIPMDDDFQLR

 88 2C1N -> LIG_14-3-3_CanoR_1 Small (9 - 17) / (8 - 15) R[^DE]{0,2}[^DEPG]([ST])(([FWYLMV].)|([^PRIKGN]P)|([^PRIKGN].{2,4}[VILMFWYP])) ARKSTGGK

 89 2C1N -> LIG_14-3-3_CanoR_1 Small (9 - 17) / (8 - 15) R[^DE]{0,2}[^DEPG]([ST])(([FWYLMV].)|([^PRIKGN]P)|([^PRIKGN].{2,4}[VILMFWYP])) ARKSTGGK

 90 3QIS -> LIG_OCRL_FandH_1 Small (223 - 235) / (223 - 235) .F[^P][^P][KRIL]H[^P][^P][YLMFH][^P]... PFARLHECYGQEI

 91 3ADE -> DEG_Kelch_Keap1_1 Small (349 - 354) / (348 - 355) [DNS].[DES][TNS]GE VDPSTGEL

 92 5D3E -> LIG_14-3-3_CanoR_1 Small (766 - 770) / (766 - 798) R[^DE]{0,2}[^DEPG]([ST])(([FWYLMV].)|([^PRIKGN]P)|([^PRIKGN].{2,4}[VILMFWYP])) RQSVLNLMTHSVNQGQNIHRKTTASTRKVSLAP

 93 5D3E -> LIG_14-3-3_CanoR_1 Small (792 - 797) / (766 - 798) R[^DE]{0,2}[^DEPG]([ST])(([FWYLMV].)|([^PRIKGN]P)|([^PRIKGN].{2,4}[VILMFWYP])) RQSVLNLMTHSVNQGQNIHRKTTASTRKVSLAP

 94 5D3E -> LIG_14-3-3_CanoR_1 Small (766 - 770) / (767 - 771) R[^DE]{0,2}[^DEPG]([ST])(([FWYLMV].)|([^PRIKGN]P)|([^PRIKGN].{2,4}[VILMFWYP])) QSVLN

 95 5D3E -> LIG_14-3-3_CanoR_1 Small (766 - 770) / (767 - 798) R[^DE]{0,2}[^DEPG]([ST])(([FWYLMV].)|([^PRIKGN]P)|([^PRIKGN].{2,4}[VILMFWYP])) QSVLNLMTHSVNQGQNIHRKTTASTRKVSLAP

 96 5D3E -> LIG_14-3-3_CanoR_1 Small (792 - 797) / (767 - 798) R[^DE]{0,2}[^DEPG]([ST])(([FWYLMV].)|([^PRIKGN]P)|([^PRIKGN].{2,4}[VILMFWYP])) QSVLNLMTHSVNQGQNIHRKTTASTRKVSLAP

 97 3RDV -> LIG_CAP-Gly_2 Small (575 - 581) / (574 - 581) .W[RK][DE]GCY$ DSWKDGCY

 98 3RDV -> LIG_CAP-Gly_2 Small (575 - 581) / (574 - 581) .W[RK][DE]GCY$ DSWKDGCY

 99 3RDV -> LIG_CAP-Gly_2 Small (575 - 581) / (575 - 581) .W[RK][DE]GCY$ SWKDGCY

100 3RDV -> LIG_CAP-Gly_2 Small (575 - 581) / (574 - 581) .W[RK][DE]GCY$ DSWKDGCY

101 2LUE -> LIG_LIR_Gen_1 Small (177 - 181) / (169 - 185) [EDST].{0,2}[WFY]..[ILV] NSSGSSEDSFVEIRMAE

102 1ZW3 -> LIG_Vh1_VBS_1 Small (1633 - 1651) / (1630 - 1652) [VMIL][MILFYPA][^P][TASKHC][AVSC][^P][^P][ILVM][^P][^P][^P][LMTVI][^P][^P][LMV][ILVMA][^P][^P][AIVLMT] WSVLAGHSRTVSDSIKKLITSMR

103 5HKH -> LIG_UFM1_UFIM_1 Small (339 - 348) / (338 - 346) [ND].WGI.[LIV][VMLI].{0,1}[ED] DNEWGIELV

104 2VJ0 -> LIG_AP2alpha_1 Small (324 - 328) / (324 - 330) F.D.F FEDNFVP

105 2YJE -> LIG_Actin_RPEL_3 Large (17 - 36) / (1 - 63) [IL]..[^P][^P][^P][^P]R.....[IL]..[^P][^P][ILV][ILM] MTLLEPEMLM...RARTEDYLKR

106 2YJE -> LIG_Actin_RPEL_3 Large (61 - 80) / (1 - 63) [IL]..[^P][^P][^P][^P]R.....[IL]..[^P][^P][ILV][ILM] MTLLEPEMLM...RARTEDYLKR

107 2YJF -> LIG_Actin_RPEL_3 Large (17 - 36) / (5 - 126) [IL]..[^P][^P][^P][^P]R.....[IL]..[^P][^P][ILV][ILM] EPEMLMMAVQ...ELVEKNILPV

108 2YJF -> LIG_Actin_RPEL_3 Large (61 - 80) / (5 - 126) [IL]..[^P][^P][^P][^P]R.....[IL]..[^P][^P][ILV][ILM] EPEMLMMAVQ...ELVEKNILPV

109 2YJF -> LIG_Actin_RPEL_3 Large (105 - 124) / (5 - 126) [IL]..[^P][^P][^P][^P]R.....[IL]..[^P][^P][ILV][ILM] EPEMLMMAVQ...ELVEKNILPV

110 2CCH -> DOC_CYCLIN_RxL_1 Small (91 - 99) / (89 - 100) (.|([KRH].{0,3}))[^EDWNSG][^D][RK][^D]L.{0,1}[FLMP].{0,3}[EDST] HTLKGRRLVFDN

111 2CCH -> DOC_CYCLIN_RxL_1 Small (91 - 99) / (89 - 100) (.|([KRH].{0,3}))[^EDWNSG][^D][RK][^D]L.{0,1}[FLMP].{0,3}[EDST] HTLKGRRLVFDN

112 2CCI -> MOD_CDK_SPxK_1 Small (71 - 77) / (53 - 98) ...([ST])P.[KR] LSPRKRLGDDNLCNTPHLPPCSPPKQGKKENGPPHSHTLKGRRLVF

113 4BH6 -> LIG_APCC_ABBA_1 Large (61 - 66) / (60 - 111) [ILVMF].[ILMVP][FHY].[DE] QFMLYEETAE...SPAKICPYER

114 4BH6 -> LIG_APCC_ABBA_1 Small (61 - 66) / (60 - 80) [ILVMF].[ILMVP][FHY].[DE] QFMLYEETAEERNIAVHRHNE

115 4BH6 -> LIG_APCC_ABBA_1 Small (61 - 66) / (60 - 79) [ILVMF].[ILMVP][FHY].[DE] QFMLYEETAEERNIAVHRHN

116 4BH6 -> LIG_APCC_ABBA_1 Small (61 - 66) / (60 - 79) [ILVMF].[ILMVP][FHY].[DE] QFMLYEETAEERNIAVHRHN

117 4BH6 -> LIG_APCC_ABBA_1 Large (61 - 66) / (60 - 125) [ILVMF].[ILMVP][FHY].[DE] QFMLYEETAE...EGGRIALKDL

118 4BH6 -> LIG_APCC_ABBA_1 Large (61 - 66) / (60 - 125) [ILVMF].[ILMVP][FHY].[DE] QFMLYEETAE...EGGRIALKDL

119 4BH6 -> LIG_APCC_ABBA_1 Large (61 - 66) / (60 - 125) [ILVMF].[ILMVP][FHY].[DE] QFMLYEETAE...EGGRIALKDL

120 4BH6 -> LIG_APCC_ABBA_1 Small (61 - 66) / (60 - 80) [ILVMF].[ILMVP][FHY].[DE] QFMLYEETAEERNIAVHRHNE

121 3EMH -> LIG_WD40_WDR5_WIN_1 Small (3763 - 3769) / (3764 - 3769) [SCA]AR[STCA][EQR][PGILVM][HYFQNKRLVI] ARAEVH

122 1T29 -> LIG_BRCT_BRCA1_2 Small (989 - 995) / (985 - 996) .(S)..F.K ISRSTSPTFNKQ

123 4WJN -> LIG_SUMO_SIM_par_1 Small (555 - 566) / (552 - 574) [DEST]{0,5}.[VILPTM][VIL][DESTVILMA][VIL].{0,1}[DEST]{1,10} AEERVVVISSSEDSDAENSSSRE

124 3MQS -> DOC_USP7_MATH_1 Small (397 - 401) / (395 - 401) [PA][^P][^FYWIL]S[^P] SQPSTSS

125 1DDV -> LIG_EVH1_2 Small (1156 - 1160) / (1155 - 1160) PP..F TPPSPF

126 2ZPN -> LIG_LIR_Gen_1 Small (411 - 415) / (412 - 415) [EDST].{0,2}[WFY]..[ILV] WEEL

127 2ZPN -> LIG_LIR_Gen_1 Small (411 - 415) / (412 - 415) [EDST].{0,2}[WFY]..[ILV] WEEL

128 2ZPN -> LIG_LIR_Gen_1 Small (411 - 415) / (412 - 415) [EDST].{0,2}[WFY]..[ILV] WEEL

129 2ZPN -> LIG_LIR_Gen_1 Small (411 - 415) / (412 - 415) [EDST].{0,2}[WFY]..[ILV] WEEL

130 3KUT -> LIG_PAM2_1 Small (109 - 121) / (109 - 123) ..[LFP][NS][PIVTAFL].A..(([FY].[PYLF])|(W..)). SNLNPNAKEFVPGVK

131 3KUT -> LIG_PAM2_1 Small (109 - 121) / (110 - 125) ..[LFP][NS][PIVTAFL].A..(([FY].[PYLF])|(W..)). NLNPNAKEFVPGVKYG

132 4F0Z -> DOC_PP2B_PxIxI_1 Small (205 - 211) / (205 - 234) .P[^P]I[^P][IV][^P] KPKIIITGCEDNVYEKLPEQNSNFLCVKKL

133 4CQO -> LIG_CNOT1_NIM_1 Small (40 - 49) / (40 - 54) [FY][^P].[WFY][^P]DY..L FSSWNDYLGLATLIT

134 4CQO -> LIG_CNOT1_NIM_1 Small (40 - 49) / (40 - 53) [FY][^P].[WFY][^P]DY..L FSSWNDYLGLATLI

135 2X04 -> LIG_PAM2_2 Small (1385 - 1398) / (1385 - 1399) ((WPP)|([FL][PV][APQ]))EF.PG.PWKG. WPPEFHPGVPWKGLQ

136 2X04 -> LIG_PAM2_2 Small (1385 - 1398) / (1385 - 1399) ((WPP)|([FL][PV][APQ]))EF.PG.PWKG. WPPEFHPGVPWKGLQ

137 1O0P -> LIG_ULM_U2AF65_1 Small (15 - 23) / (13 - 25) [KR]{1,4}[KR].[KR]W. PSKKRKRSRWNQD

138 1S5Q -> LIG_Sin3_1 Small (9 - 19) / (6 - 21) [LIV]..[LM]L.AA.[FY][LI] RMNIQMLLEAADYLER

139 5JJA -> DOC_PP2A_B56_1 Small (669 - 674) / (668 - 675) ([LMFYWIC]..I.E)|(L..[IVLWC].E). KLSPIIED

140 5JJA -> DOC_PP2A_B56_1 Small (669 - 674) / (668 - 675) ([LMFYWIC]..I.E)|(L..[IVLWC].E). KLSPIIED

141 3UVN -> LIG_WD40_WDR5_WIN_1 Small (1493 - 1499) / (1492 - 1499) [SCA]AR[STCA][EQR][PGILVM][HYFQNKRLVI] GSARSEGY

142 3UVN -> LIG_WD40_WDR5_WIN_1 Small (1493 - 1499) / (1492 - 1500) [SCA]AR[STCA][EQR][PGILVM][HYFQNKRLVI] GSARSEGYY

143 2V8F -> LIG_PROFILIN_1 Small (636 - 642) / (611 - 643) PPP[PA]P((P[LGP])|([LG]P)) IPPPPPLPGGACIPPPPQLPGSAAIPPPPPLPG

144 2V8C -> LIG_PROFILIN_1 Small (166 - 172) / (165 - 177) PPP[PA]P((P[LGP])|([LG]P)) GPPPPPGPPPPPG

145 2L1C -> LIG_PTB_Phospho_1 Small (767 - 773) / (762 - 788) (.[^P].NP.(Y))|(.[ILVMFY].N..(Y)) RAKWDTANNPLYKEATSTFTNITYRGT

146 2L1C -> LIG_PTB_Phospho_1 Small (779 - 785) / (762 - 788) (.[^P].NP.(Y))|(.[ILVMFY].N..(Y)) RAKWDTANNPLYKEATSTFTNITYRGT

147 3UVM -> LIG_WD40_WDR5_WIN_1 Small (2509 - 2515) / (2508 - 2517) [SCA]AR[STCA][EQR][PGILVM][HYFQNKRLVI] GAARAEVYLR

148 1UJK -> TRG_LysEnd_APsAcLL_1 Small (495 - 500) / (495 - 501) [DERQ]...L[LVI] DDISLLK

149 1UJK -> TRG_LysEnd_APsAcLL_1 Small (495 - 500) / (495 - 501) [DERQ]...L[LVI] DDISLLK

150 1MW4 -> LIG_SH2_GRB2 Small (1139 - 1142) / (1135 - 1144) (Y).N. PQPEYVNQPD

151 2XS0 -> DOC_MAPK_NFAT4_5 Small (146 - 154) / (143 - 154) [RK][^P][^P][LIM].L.[LIVMF]. RPSRDHLYLPLE

152 2AIN -> LIG_PDZ_Class_1 Small (1266 - 1271) / (1266 - 1271) ...[ST].[ACVILF]$ LFSTEV

153 4LOQ -> DOC_MAPK_MEF2A_6 Small (400 - 409) / (384 - 412) [RK].{2,4}[LIVMP].[LIV].[LIVMF] RVYPVSVPYSSAQSTSKTSVTLSLVMPSQ

154 4LOQ -> DOC_MAPK_MEF2A_6 Small (400 - 409) / (384 - 412) [RK].{2,4}[LIVMP].[LIV].[LIVMF] RVYPVSVPYSSAQSTSKTSVTLSLVMPSQ

155 4LOQ -> DOC_MAPK_MEF2A_6 Small (400 - 409) / (385 - 411) [RK].{2,4}[LIVMP].[LIV].[LIVMF] VYPVSVPYSSAQSTSKTSVTLSLVMPS

156 4LOQ -> DOC_MAPK_MEF2A_6 Small (400 - 409) / (385 - 411) [RK].{2,4}[LIVMP].[LIV].[LIVMF] VYPVSVPYSSAQSTSKTSVTLSLVMPS

157 1EG4 -> LIG_WW_1 Small (889 - 892) / (882 - 894) PP.Y NMTPYRSPPPYVP

158 1OQN -> LIG_PTB_Apo_2 Small (756 - 763) / (755 - 763) (.[^P].NP.[FY].)|(.[ILVMFY].N..[FY].) NGYENPTYK

159 1OQN -> LIG_PTB_Apo_2 Small (756 - 763) / (755 - 763) (.[^P].NP.[FY].)|(.[ILVMFY].N..[FY].) NGYENPTYK

160 3GJ9 -> LIG_PDZ_Class_1 Small (440 - 445) / (440 - 445) ...[ST].[ACVILF]$ RRESAI

161 3GJ9 -> LIG_PDZ_Class_1 Small (440 - 445) / (440 - 445) ...[ST].[ACVILF]$ RRESAI

162 1KYU -> LIG_AP2alpha_2 Small (629 - 631) / (628 - 632) DP[FW] SDPFK

163 5SW9 -> DOC_PP2A_B56_1 Small (590 - 595) / (588 - 598) ([LMFYWIC]..I.E)|(L..[IVLWC].E). PLLSPIPELPE

164 3GM1 -> LIG_FAT_LD_1 Small (266 - 274) / (264 - 274) [LV][DE][^P][LM][LM][^P][^P]L[^P] RELDELMASLS

165 3GM1 -> LIG_FAT_LD_1 Small (266 - 274) / (263 - 274) [LV][DE][^P][LM][LM][^P][^P]L[^P] TRELDELMASLS

166 3GM1 -> LIG_FAT_LD_1 Small (266 - 274) / (264 - 274) [LV][DE][^P][LM][LM][^P][^P]L[^P] RELDELMASLS

167 3GM1 -> LIG_FAT_LD_1 Small (266 - 274) / (262 - 274) [LV][DE][^P][LM][LM][^P][^P]L[^P] ATRELDELMASLS

168 2ZNE -> LIG_EF_ALG2_ABM_1 Large (802 - 810) / (800 - 868) P[PG]{0,1}YP.{1,6}Y[QS]{0,1}P GPPYPTYPGY...PPQQSYYPQQ

169 2ZNE -> LIG_EF_ALG2_ABM_1 Small (802 - 810) / (799 - 810) P[PG]{0,1}YP.{1,6}Y[QS]{0,1}P QGPPYPTYPGYP

170 1KY7 -> LIG_AP2alpha_1 Small (324 - 328) / (322 - 330) F.D.F SFFEDNFVP

171 1KY6 -> LIG_AP2alpha_2 Small (377 - 379) / (375 - 381) DP[FW] FSDPWGG

172 1W70 -> LIG_SH3_2 Small (363 - 368) / (360 - 372) P..P.[KR] KPQPAVPPRPSAD

173 1W70 -> LIG_SH3_2 Small (363 - 368) / (360 - 369) P..P.[KR] KPQPAVPPRP

174 4KMD -> LIG_SUFU_1 Small (120 - 127) / (119 - 128) [SV][CY]GH[LIF][LAST][GAIV]. GSYGHLSIGT

175 2C1J -> LIG_14-3-3_CanoR_1 Small (9 - 17) / (8 - 15) R[^DE]{0,2}[^DEPG]([ST])(([FWYLMV].)|([^PRIKGN]P)|([^PRIKGN].{2,4}[VILMFWYP])) ARKSTGGK

176 2C1J -> LIG_14-3-3_CanoR_1 Small (9 - 17) / (8 - 15) R[^DE]{0,2}[^DEPG]([ST])(([FWYLMV].)|([^PRIKGN]P)|([^PRIKGN].{2,4}[VILMFWYP])) ARKSTGGK

177 5SWF -> DOC_PP2A_B56_1 Small (669 - 674) / (668 - 675) ([LMFYWIC]..I.E)|(L..[IVLWC].E). KLSPIIED

178 1RKC -> LIG_Vh1_VBS_1 Small (1949 - 1967) / (1944 - 1969) [VMIL][MILFYPA][^P][TASKHC][AVSC][^P][^P][ILVM][^P][^P][^P][LMTVI][^P][^P][LMV][ILVMA][^P][^P][AIVLMT] YTKKELIESARKVSEKVSHVLAALQA

179 3L4F -> LIG_PDZ_Class_1 Large (641 - 646) / (1 - 646) ...[ST].[ACVILF]$ MTDNANSQLV...NDPAWDETNL

180 3L4F -> LIG_PDZ_Class_1 Large (641 - 646) / (1 - 646) ...[ST].[ACVILF]$ MTDNANSQLV...NDPAWDETNL

181 1K3Q -> LIG_FHA_2 Small (190 - 196) / (188 - 200) ..(T)..[DE]. SLEVTEADATFVQ

182 1N2D -> LIG_CaM_IQ_9 Small (808 - 827) / (806 - 853) [ACLIVTM][^P][^P][ILVMFCT]Q[^P][^P][^P][RK][^P]{4,5}[RKQ][^P][^P] QISQAIKYLQNNIKGFIIRQRVNDEMKVNCATLLQAAYRGHSIRANVF

183 1N2D -> LIG_CaM_IQ_9 Small (833 - 851) / (806 - 853) [ACLIVTM][^P][^P][ILVMFCT]Q[^P][^P][^P][RK][^P]{4,5}[RKQ][^P][^P] QISQAIKYLQNNIKGFIIRQRVNDEMKVNCATLLQAAYRGHSIRANVF

184 2XA0 -> LIG_BH_BH3_1 Small (55 - 71) / (57 - 82) ....[LIFVYMTE][ASGC][^P]{2}L[^P]{2}[IVMTL][GACS][D][^P][FVLMI]. KKLSECLRRIGDELDSNMELQRMIAD

185 2XA0 -> LIG_BH_BH3_1 Small (55 - 71) / (57 - 82) ....[LIFVYMTE][ASGC][^P]{2}L[^P]{2}[IVMTL][GACS][D][^P][FVLMI]. KKLSECLRRIGDELDSNMELQRMIAD

186 2MPS -> DEG_MDM2_SWIB_1 Small (15 - 22) / (10 - 25) F[^P]{3}W[^P]{2,3}[VIL] DGGTTFEHLWSSLEPD

187 3GJO -> LIG_SxIP_EBH_1 Small (7545 - 7558) / (7550 - 7554) ([KR][^ED]{0,5}[ST].IP[^ED]{5,5})|([^ED]{5,5}[ST].IP[^ED]{0,5}[KR]) SKIPT

188 3GJO -> LIG_SxIP_EBH_1 Small (7545 - 7558) / (7549 - 7556) ([KR][^ED]{0,5}[ST].IP[^ED]{5,5})|([^ED]{5,5}[ST].IP[^ED]{0,5}[KR]) PSKIPTPQ

189 3GJO -> LIG_SxIP_EBH_1 Small (7545 - 7558) / (7548 - 7556) ([KR][^ED]{0,5}[ST].IP[^ED]{5,5})|([^ED]{5,5}[ST].IP[^ED]{0,5}[KR]) KPSKIPTPQ

190 3GJO -> LIG_SxIP_EBH_1 Small (7545 - 7558) / (7548 - 7558) ([KR][^ED]{0,5}[ST].IP[^ED]{5,5})|([^ED]{5,5}[ST].IP[^ED]{0,5}[KR]) KPSKIPTPQRK

191 1KKQ -> LIG_CORNRBOX Small (2350 - 2358) / (2347 - 2365) L[^P]{2,2}[HI]I[^P]{2,2}[IAV][IL] NMGLEAIIRKALMGKYDQW

192 1KKQ -> LIG_CORNRBOX Small (2350 - 2358) / (2347 - 2365) L[^P]{2,2}[HI]I[^P]{2,2}[IAV][IL] NMGLEAIIRKALMGKYDQW

193 1KKQ -> LIG_CORNRBOX Small (2350 - 2358) / (2347 - 2365) L[^P]{2,2}[HI]I[^P]{2,2}[IAV][IL] NMGLEAIIRKALMGKYDQW

194 1KKQ -> LIG_CORNRBOX Small (2350 - 2358) / (2347 - 2365) L[^P]{2,2}[HI]I[^P]{2,2}[IAV][IL] NMGLEAIIRKALMGKYDQW

195 1T15 -> LIG_BRCT_BRCA1_1 Small (989 - 993) / (988 - 995) .(S)..F STSPTFNK

196 2P1L -> LIG_BH_BH3_1 Large (108 - 124) / (3 - 128) ....[LIFVYMTE][ASGC][^P]{2}L[^P]{2}[IVMTL][GACS][D][^P][FVLMI]. GSKTSNNSTM...TGDLFDIMSG

197 2P1L -> LIG_BH_BH3_1 Large (108 - 124) / (3 - 128) ....[LIFVYMTE][ASGC][^P]{2}L[^P]{2}[IVMTL][GACS][D][^P][FVLMI]. GSKTSNNSTM...TGDLFDIMSG

198 2P1L -> LIG_BH_BH3_1 Large (108 - 124) / (3 - 128) ....[LIFVYMTE][ASGC][^P]{2}L[^P]{2}[IVMTL][GACS][D][^P][FVLMI]. GSKTSNNSTM...TGDLFDIMSG

199 2P1L -> LIG_BH_BH3_1 Large (108 - 124) / (3 - 128) ....[LIFVYMTE][ASGC][^P]{2}L[^P]{2}[IVMTL][GACS][D][^P][FVLMI]. GSKTSNNSTM...TGDLFDIMSG

200 3IQJ -> LIG_14-3-3_CanoR_1 Small (254 - 263) / (255 - 262) R[^DE]{0,2}[^DEPG]([ST])(([FWYLMV].)|([^PRIKGN]P)|([^PRIKGN].{2,4}[VILMFWYP])) QRSTSTPN

201 1QG1 -> LIG_SH2_GRB2 Small (427 - 430) / (423 - 435) (Y).N. DDPSYVNVQNLDK

202 2P1Q -> DEG_SCF_TIR1_1 Small (82 - 94) / (82 - 94) .[VLIA][VLI]GWPP[VLI]...R. QVVGWPPVRNYRK

203 1MK7 -> LIG_PTB_Apo_2 Large (767 - 774) / (270 - 775) (.[^P].NP.[FY].)|(.[ILVMFY].N..[FY].) HLLVFTTDAK...DTANNPLYKE

204 1MK7 -> LIG_PTB_Apo_2 Large (767 - 774) / (269 - 775) (.[^P].NP.[FY].)|(.[ILVMFY].N..[FY].) SHLLVFTTDA...DTANNPLYKE

205 4BLD -> LIG_SUFU_1 Small (333 - 340) / (333 - 340) [SV][CY]GH[LIF][LAST][GAIV]. SYGHLSAS

206 4BLD -> LIG_SUFU_1 Small (333 - 340) / (333 - 340) [SV][CY]GH[LIF][LAST][GAIV]. SYGHLSAS

207 4BLD -> LIG_SUFU_1 Small (333 - 340) / (333 - 340) [SV][CY]GH[LIF][LAST][GAIV]. SYGHLSAS

208 4BLD -> LIG_SUFU_1 Small (333 - 340) / (333 - 340) [SV][CY]GH[LIF][LAST][GAIV]. SYGHLSAS

209 4BLB -> LIG_SUFU_1 Small (120 - 127) / (120 - 128) [SV][CY]GH[LIF][LAST][GAIV]. SYGHLSIGT

210 4BLB -> LIG_SUFU_1 Small (120 - 127) / (120 - 128) [SV][CY]GH[LIF][LAST][GAIV]. SYGHLSIGT

211 4BLB -> LIG_SUFU_1 Small (120 - 127) / (120 - 127) [SV][CY]GH[LIF][LAST][GAIV]. SYGHLSIG

212 4BLB -> LIG_SUFU_1 Small (120 - 127) / (120 - 128) [SV][CY]GH[LIF][LAST][GAIV]. SYGHLSIGT

213 5K6S -> DOC_PP2A_B56_1 Small (669 - 674) / (667 - 677) ([LMFYWIC]..I.E)|(L..[IVLWC].E). KKLSPIIEDSR

214 1MK9 -> LIG_PTB_Apo_2 Large (767 - 774) / (270 - 776) (.[^P].NP.[FY].)|(.[ILVMFY].N..[FY].) HLLVFTTDAK...TANNPLYKEA

215 1MK9 -> LIG_PTB_Apo_2 Large (767 - 774) / (270 - 776) (.[^P].NP.[FY].)|(.[ILVMFY].N..[FY].) HLLVFTTDAK...TANNPLYKEA

216 1MK9 -> LIG_PTB_Apo_2 Large (767 - 774) / (269 - 776) (.[^P].NP.[FY].)|(.[ILVMFY].N..[FY].) SHLLVFTTDA...TANNPLYKEA

217 1MK9 -> LIG_PTB_Apo_2 Large (767 - 774) / (1 - 776) (.[^P].NP.[FY].)|(.[ILVMFY].N..[FY].) MRARPRPRPL...TANNPLYKEA

218 1JSU -> DOC_CYCLIN_RxL_1 Large (27 - 37) / (25 - 93) (.|([KRH].{0,3}))[^EDWNSG][^D][RK][^D]L.{0,1}[FLMP].{0,3}[EDST] KPSACRNLFG...LPEFYYRPPR

219 3DXC -> LIG_PTB_Apo_2 Small (756 - 763) / (741 - 768) (.[^P].NP.[FY].)|(.[ILVMFY].N..[FY].) AVTPEERHLSKMQQNGYENPTYKFFEQM

220 3DXC -> LIG_PTB_Apo_2 Small (756 - 763) / (742 - 767) (.[^P].NP.[FY].)|(.[ILVMFY].N..[FY].) VTPEERHLSKMQQNGYENPTYKFFEQ

221 3DXE -> LIG_PTB_Apo_2 Small (756 - 763) / (742 - 768) (.[^P].NP.[FY].)|(.[ILVMFY].N..[FY].) VTPEERHLSKMQQNGYENPTYKFFEQM

222 3DXE -> LIG_PTB_Apo_2 Small (756 - 763) / (742 - 768) (.[^P].NP.[FY].)|(.[ILVMFY].N..[FY].) VTPEERHLSKMQQNGYENPTYKFFEQM

223 3DXD -> LIG_PTB_Apo_2 Small (756 - 763) / (742 - 768) (.[^P].NP.[FY].)|(.[ILVMFY].N..[FY].) VTPEERHLSKMQQNGYENPTYKFFEQM

224 3DXD -> LIG_PTB_Apo_2 Small (756 - 763) / (742 - 767) (.[^P].NP.[FY].)|(.[ILVMFY].N..[FY].) VTPEERHLSKMQQNGYENPTYKFFEQ

225 3EU7 -> LIG_PALB2_WD40_1 Small (27 - 35) / (24 - 37) ....WF..L LGPISLNWFEELSS

226 3KTP -> LIG_PAM2_2 Small (1385 - 1398) / (1384 - 1399) ((WPP)|([FL][PV][APQ]))EF.PG.PWKG. NWPPEFHPGVPWKGLQ

227 3OGL -> DEG_SCF_COI1_1 Small (203 - 220) / (200 - 217) ..[RK][RK].SL..F[FLM].[RK]R[HRK].[RK]. ELPIARRASLHRFLEKRK

228 3OGL -> DEG_SCF_COI1_1 Small (203 - 220) / (200 - 217) ..[RK][RK].SL..F[FLM].[RK]R[HRK].[RK]. ELPIARRASLHRFLEKRK

229 3OGL -> DEG_SCF_COI1_1 Small (203 - 220) / (200 - 217) ..[RK][RK].SL..F[FLM].[RK]R[HRK].[RK]. ELPIARRASLHRFLEKRK

230 3OGL -> DEG_SCF_COI1_1 Small (203 - 220) / (200 - 217) ..[RK][RK].SL..F[FLM].[RK]R[HRK].[RK]. ELPIARRASLHRFLEKRK

231 3OGL -> DEG_SCF_COI1_1 Small (203 - 220) / (200 - 217) ..[RK][RK].SL..F[FLM].[RK]R[HRK].[RK]. ELPIARRASLHRFLEKRK

232 3OGL -> DEG_SCF_COI1_1 Small (203 - 220) / (200 - 217) ..[RK][RK].SL..F[FLM].[RK]R[HRK].[RK]. ELPIARRASLHRFLEKRK

233 3OGL -> DEG_SCF_COI1_1 Small (203 - 220) / (200 - 217) ..[RK][RK].SL..F[FLM].[RK]R[HRK].[RK]. ELPIARRASLHRFLEKRK

234 3BQO -> LIG_TRFH_1 Small (258 - 262) / (256 - 268) [FY].L.P RHFNLAPLGRRRV

235 1SYQ -> LIG_Vh1_VBS_1 Small (608 - 626) / (607 - 631) [VMIL][MILFYPA][^P][TASKHC][AVSC][^P][^P][ILVM][^P][^P][^P][LMTVI][^P][^P][LMV][ILVMA][^P][^P][AIVLMT] PLLQAAKGLAGAVSELLRSAQPASA

236 1A81 -> LIG_TYR_ITAM Small (185 - 202) / (186 - 203) [DEN]..(Y)..[LI].{6,12}(Y)..[LI] PDYEPIRKGQRDLYSGLN

237 1A81 -> LIG_TYR_ITAM Small (185 - 202) / (186 - 203) [DEN]..(Y)..[LI].{6,12}(Y)..[LI] PDYEPIRKGQRDLYSGLN

238 1A81 -> LIG_TYR_ITAM Small (185 - 202) / (186 - 203) [DEN]..(Y)..[LI].{6,12}(Y)..[LI] PDYEPIRKGQRDLYSGLN

239 1A81 -> LIG_TYR_ITAM Small (185 - 202) / (186 - 203) [DEN]..(Y)..[LI].{6,12}(Y)..[LI] PDYEPIRKGQRDLYSGLN

240 1A81 -> LIG_TYR_ITAM Small (185 - 202) / (186 - 203) [DEN]..(Y)..[LI].{6,12}(Y)..[LI] PDYEPIRKGQRDLYSGLN

241 1A81 -> LIG_TYR_ITAM Small (185 - 202) / (186 - 203) [DEN]..(Y)..[LI].{6,12}(Y)..[LI] PDYEPIRKGQRDLYSGLN

242 2V52 -> LIG_Actin_RPEL_3 Small (61 - 80) / (54 - 83) [IL]..[^P][^P][^P][^P]R.....[IL]..[^P][^P][ILV][ILM] RARTEDYLKRKIRSRPERAELVRMHILEET

243 2V51 -> LIG_Actin_RPEL_3 Small (17 - 36) / (1 - 40) [IL]..[^P][^P][^P][^P]R.....[IL]..[^P][^P][ILV][ILM] MTLLEPEMLMMAVQSVLQLKLQQRRTREELVSQGIMPPLK

244 2V51 -> LIG_Actin_RPEL_3 Small (17 - 36) / (1 - 40) [IL]..[^P][^P][^P][^P]R.....[IL]..[^P][^P][ILV][ILM] MTLLEPEMLMMAVQSVLQLKLQQRRTREELVSQGIMPPLK

245 3EGH -> DOC_PP1_RVXF_1 Large (446 - 452) / (424 - 489) ..[RK].{0,1}[VIL][^P][FW]. PYEPESGCVE...SAEYELEKRV

246 2I04 -> LIG_PDZ_Class_1 Small (153 - 158) / (154 - 158) ...[ST].[ACVILF]$ RETQV

247 2I04 -> LIG_PDZ_Class_1 Small (153 - 158) / (152 - 158) ...[ST].[ACVILF]$ RRRETQV

248 1N5Z -> LIG_SH3_2 Small (87 - 92) / (85 - 94) P..P.[KR] MPPTLPHRDW

249 1N5Z -> LIG_SH3_2 Small (87 - 92) / (85 - 94) P..P.[KR] MPPTLPHRDW

250 1JH4 -> LIG_PAM2_1 Small (126 - 138) / (123 - 144) ..[LFP][NS][PIVTAFL].A..(([FY].[PYLF])|(W..)). VLMSKLSVNAPEFYPSGYSSSY

251 2A25 -> DEG_SIAH_1 Small (59 - 67) / (59 - 67) .P.A.V.P[^P] KPAAVVAPI

252 1M7E -> LIG_PTB_Apo_2 Small (756 - 763) / (755 - 763) (.[^P].NP.[FY].)|(.[ILVMFY].N..[FY].) NGYENPTYK

253 1M7E -> LIG_PTB_Apo_2 Small (756 - 763) / (755 - 763) (.[^P].NP.[FY].)|(.[ILVMFY].N..[FY].) NGYENPTYK

254 1M7E -> LIG_PTB_Apo_2 Small (756 - 763) / (755 - 763) (.[^P].NP.[FY].)|(.[ILVMFY].N..[FY].) NGYENPTYK

255 2I0I -> LIG_PDZ_Class_1 Small (153 - 158) / (153 - 158) ...[ST].[ACVILF]$ RRETQV

256 2I0I -> LIG_PDZ_Class_1 Small (153 - 158) / (153 - 158) ...[ST].[ACVILF]$ RRETQV

257 2I0I -> LIG_PDZ_Class_1 Small (153 - 158) / (153 - 158) ...[ST].[ACVILF]$ RRETQV

258 4WRQ -> LIG_14-3-3_CanoR_1 Small (16 - 22) / (18 - 25) R[^DE]{0,2}[^DEPG]([ST])(([FWYLMV].)|([^PRIKGN]P)|([^PRIKGN].{2,4}[VILMFWYP])) SASLSNLH

259 4WRQ -> LIG_14-3-3_CanoR_1 Small (16 - 22) / (18 - 24) R[^DE]{0,2}[^DEPG]([ST])(([FWYLMV].)|([^PRIKGN]P)|([^PRIKGN].{2,4}[VILMFWYP])) SASLSNL

260 2I0L -> LIG_PDZ_Class_1 Small (153 - 158) / (153 - 158) ...[ST].[ACVILF]$ RRETQV

261 2I0L -> LIG_PDZ_Class_1 Small (153 - 158) / (154 - 158) ...[ST].[ACVILF]$ RETQV

262 1GWQ -> LIG_NRBOX Small (689 - 695) / (688 - 696) [^P]L[^P][^P]LL[^P] KILHRLLQD

263 1GWQ -> LIG_NRBOX Small (689 - 695) / (688 - 696) [^P]L[^P][^P]LL[^P] KILHRLLQD

264 2FLU -> DEG_Kelch_Keap1_1 Small (77 - 82) / (69 - 84) [DNS].[DES][TNS]GE AFFAQLQLDEETGEFL

265 3UBW -> LIG_14-3-3_CanoR_1 Small (31 - 36) / (31 - 37) R[^DE]{0,2}[^DEPG]([ST])(([FWYLMV].)|([^PRIKGN]P)|([^PRIKGN].{2,4}[VILMFWYP])) RSFSEPF

266 5D2D -> LIG_14-3-3_CanoR_1 Small (751 - 755) / (751 - 774) R[^DE]{0,2}[^DEPG]([ST])(([FWYLMV].)|([^PRIKGN]P)|([^PRIKGN].{2,4}[VILMFWYP])) RISVISTGPTLQARRRQSVLNLMT

267 5D2D -> LIG_14-3-3_CanoR_1 Small (766 - 770) / (751 - 774) R[^DE]{0,2}[^DEPG]([ST])(([FWYLMV].)|([^PRIKGN]P)|([^PRIKGN].{2,4}[VILMFWYP])) RISVISTGPTLQARRRQSVLNLMT

268 1RF3 -> LIG_TRAF2_1 Small (402 - 405) / (385 - 408) [PSAT].[QE]E PYPIPEEGDPGPPGLSTPHQEDGK

269 1P22 -> DEG_SCF_TRCP1_1 Small (32 - 37) / (30 - 40) D(S)G.{2,3}([ST]) YLDSGIHSGAT

270 4U4C -> LIG_Mtr4_Trf4_1 Large (118 - 133) / (66 - 583) [LFVAIMW].{3,5}[DE][FY][IL][SAPGK][FL].{3,6}[DE]{3} TADGILVLEH...DDEDGYNPYT

271 4ESG -> LIG_WD40_WDR5_WIN_1 Small (3763 - 3769) / (3755 - 3770) [SCA]AR[STCA][EQR][PGILVM][HYFQNKRLVI] EPPLNPHGSARAEVHL

272 4ESG -> LIG_WD40_WDR5_WIN_1 Small (3763 - 3769) / (3755 - 3770) [SCA]AR[STCA][EQR][PGILVM][HYFQNKRLVI] EPPLNPHGSARAEVHL

273 1TY4 -> LIG_BH_BH3_1 Small (65 - 81) / (63 - 89) ....[LIFVYMTE][ASGC][^P]{2}L[^P]{2}[IVMTL][GACS][D][^P][FVLMI]. SSIGYEIGSKLAAMCDDFDAQMMSYSA

274 1TY4 -> LIG_BH_BH3_1 Small (65 - 81) / (63 - 91) ....[LIFVYMTE][ASGC][^P]{2}L[^P]{2}[IVMTL][GACS][D][^P][FVLMI]. SSIGYEIGSKLAAMCDDFDAQMMSYSAHA

275 2WH0 -> LIG_14-3-3_CanoR_1 Small (343 - 348) / (343 - 372) R[^DE]{0,2}[^DEPG]([ST])(([FWYLMV].)|([^PRIKGN]P)|([^PRIKGN].{2,4}[VILMFWYP])) RSKSAPTSPCDQEIKELENNIRKALSFDNR

276 2WH0 -> LIG_14-3-3_CanoR_1 Small (343 - 348) / (343 - 369) R[^DE]{0,2}[^DEPG]([ST])(([FWYLMV].)|([^PRIKGN]P)|([^PRIKGN].{2,4}[VILMFWYP])) RSKSAPTSPCDQEIKELENNIRKALSF

277 1MFG -> LIG_PDZ_Class_2 Small (1250 - 1255) / (1247 - 1255) ...[VLIFY].[ACVILF]$ EYLGLDVPV

278 1MFL -> LIG_PDZ_Class_2 Small (1250 - 1255) / (1251 - 1255) ...[VLIFY].[ACVILF]$ LDVPV

279 1U6H -> LIG_Vh1_VBS_1 Small (856 - 874) / (853 - 876) [VMIL][MILFYPA][^P][TASKHC][AVSC][^P][^P][ILVM][^P][^P][^P][LMTVI][^P][^P][LMV][ILVMA][^P][^P][AIVLMT] SRKLLSAAKILADATAKMVEAAKG

280 3O8I -> LIG_14-3-3_CanoR_1 Small (254 - 263) / (256 - 263) R[^DE]{0,2}[^DEPG]([ST])(([FWYLMV].)|([^PRIKGN]P)|([^PRIKGN].{2,4}[VILMFWYP])) RSTSTPNV

281 2IHS -> LIG_SPRY_1 Small (184 - 189) / (184 - 198) [ED][LIV]NNN[^P] DINNNNNIVEDVERK

282 2IHS -> LIG_SPRY_1 Small (184 - 189) / (184 - 203) [ED][LIV]NNN[^P] DINNNNNIVEDVERKREFYI

283 1JEG -> LIG_SH3_2 Small (614 - 619) / (612 - 629) P..P.[KR] IPPPLPERTPESFIVVEE

284 2I3S -> LIG_GLEBS_BUB3_1 Small (333 - 341) / (315 - 350) [EN][FYLW][NSQ].EE[ILMVF][^P][LIVMFA] KPERIVFNFNLIYPENDEEFNTEEILAMIKGLYKVQ

285 2I3S -> LIG_GLEBS_BUB3_1 Small (333 - 341) / (315 - 350) [EN][FYLW][NSQ].EE[ILMVF][^P][LIVMFA] KPERIVFNFNLIYPENDEEFNTEEILAMIKGLYKVQ

286 2I3S -> LIG_GLEBS_BUB3_1 Small (333 - 341) / (315 - 350) [EN][FYLW][NSQ].EE[ILMVF][^P][LIVMFA] KPERIVFNFNLIYPENDEEFNTEEILAMIKGLYKVQ

287 1Q1T -> TRG_NLS_MonoCore_2 Large (127 - 132) / (127 - 708) [^DE]((K[RK])|(RK))[KRP][KR][^DE] KKKRKVEDPK...PPTPPPEPET

288 1Q1T -> TRG_NLS_MonoExtC_3 Large (127 - 133) / (127 - 708) [^DE]((K[RK])|(RK))(([^DE][KR])|([KR][^DE]))(([PKR])|([^DE][DE])) KKKRKVEDPK...PPTPPPEPET

289 1Q1T -> TRG_NLS_MonoExtN_4 Large (126 - 132) / (127 - 708) (([PKR].{0,1}[^DE])|([PKR]))((K[RK])|(RK))(([^DE][KR])|([KR][^DE]))[^DE] KKKRKVEDPK...PPTPPPEPET

290 1Q1T -> TRG_NLS_MonoCore_2 Small (127 - 132) / (123 - 133) [^DE]((K[RK])|(RK))[KRP][KR][^DE] STPPKKKRKVE

291 1Q1T -> TRG_NLS_MonoExtC_3 Small (127 - 133) / (123 - 133) [^DE]((K[RK])|(RK))(([^DE][KR])|([KR][^DE]))(([PKR])|([^DE][DE])) STPPKKKRKVE

292 1Q1T -> TRG_NLS_MonoExtN_4 Small (126 - 132) / (123 - 133) (([PKR].{0,1}[^DE])|([PKR]))((K[RK])|(RK))(([^DE][KR])|([KR][^DE]))[^DE] STPPKKKRKVE

293 1JWG -> TRG_LysEnd_GGAAcLL_1 Small (2485 - 2491) / (2485 - 2491) D..LL.{1,2}$ DEDLLHI

294 1JWG -> TRG_LysEnd_GGAAcLL_1 Small (2485 - 2491) / (2487 - 2491) D..LL.{1,2}$ DLLHI

295 1K3N -> LIG_FHA_2 Small (153 - 159) / (149 - 161) ..(T)..[DE]. KKMTFQTPTDPLE

296 3H52 -> LIG_CORNRBOX Small (2263 - 2271) / (2265 - 2274) L[^P]{2,2}[HI]I[^P]{2,2}[IAV][IL] DIIRKALMGS

297 3H52 -> LIG_CORNRBOX Small (2263 - 2271) / (2260 - 2274) L[^P]{2,2}[HI]I[^P]{2,2}[IAV][IL] NLGLEDIIRKALMGS

298 1Z9O -> TRG_ER_FFAT_1 Small (473 - 481) / (473 - 481) [DE].{0,4}E[FY][FYK]D[AC].[ESTD] EDEFYDALS

299 1Z9O -> TRG_ER_FFAT_1 Small (473 - 481) / (473 - 481) [DE].{0,4}E[FY][FYK]D[AC].[ESTD] EDEFYDALS

300 1Z9O -> TRG_ER_FFAT_1 Small (473 - 481) / (473 - 481) [DE].{0,4}E[FY][FYK]D[AC].[ESTD] EDEFYDALS

301 1Z9O -> TRG_ER_FFAT_1 Small (473 - 481) / (473 - 481) [DE].{0,4}E[FY][FYK]D[AC].[ESTD] EDEFYDALS

302 1Z9O -> TRG_ER_FFAT_1 Small (473 - 481) / (473 - 481) [DE].{0,4}E[FY][FYK]D[AC].[ESTD] EDEFYDALS

303 1Z9O -> TRG_ER_FFAT_1 Small (473 - 481) / (473 - 481) [DE].{0,4}E[FY][FYK]D[AC].[ESTD] EDEFYDALS

304 2R7G -> LIG_Rb_pABgroove_1 Small (41 - 49) / (40 - 49) ..[LIMV]..[LM][FY]D. PPTLHELYDL

305 2R7G -> LIG_Rb_pABgroove_1 Small (41 - 49) / (40 - 49) ..[LIMV]..[LM][FY]D. PPTLHELYDL

306 2R7G -> LIG_Rb_pABgroove_1 Small (41 - 49) / (40 - 48) ..[LIMV]..[LM][FY]D. PPTLHELYD

307 3PKN -> LIG_PAM2_1 Small (13 - 25) / (15 - 25) ..[LFP][NS][PIVTAFL].A..(([FY].[PYLF])|(W..)). LNPNAKVWQEI

308 4ES0 -> LIG_WD40_WDR5_WIN_1 Small (1746 - 1752) / (1745 - 1751) [SCA]AR[STCA][EQR][PGILVM][HYFQNKRLVI] GCARSEG

309 1PJM -> TRG_NLS_Bipartite_1 Large (860 - 877) / (283 - 928) [KR][KR].{7,15}[^DE]((K[RK])|(RK))(([^DE][KR])|([KR][^DE]))[^DE] CNIDEVKNVY...SMDTSNKEEK

310 1PJN -> TRG_NLS_Bipartite_1 Large (534 - 553) / (532 - 590) [KR][KR].{7,15}[^DE]((K[RK])|(RK))(([^DE][KR])|([KR][^DE]))[^DE] RKKRKTEEES...METATVESTA

311 3BUA -> LIG_TRFH_1 Small (504 - 508) / (497 - 510) [FY].L.P FRGLALKYLLTPVN

312 3BUA -> LIG_TRFH_1 Small (504 - 508) / (495 - 510) [FY].L.P TEFRGLALKYLLTPVN

313 3BUA -> LIG_TRFH_1 Small (504 - 508) / (498 - 509) [FY].L.P RGLALKYLLTPV

314 3BUA -> LIG_TRFH_1 Small (504 - 508) / (499 - 510) [FY].L.P GLALKYLLTPVN

315 1AXC -> LIG_PCNA_PIPBox_1 Small (144 - 153) / (143 - 160) ((^.{0,3})|(Q)).[^FHWY][ILM][^P][^FHILVWYP][HFM][FMY].. RQTSMTDFYHSKRRLIFS

316 1AXC -> LIG_PCNA_PIPBox_1 Small (144 - 153) / (143 - 160) ((^.{0,3})|(Q)).[^FHWY][ILM][^P][^FHILVWYP][HFM][FMY].. RQTSMTDFYHSKRRLIFS

317 1AXC -> LIG_PCNA_PIPBox_1 Small (144 - 153) / (143 - 160) ((^.{0,3})|(Q)).[^FHWY][ILM][^P][^FHILVWYP][HFM][FMY].. RQTSMTDFYHSKRRLIFS

318 2ROC -> LIG_BH_BH3_1 Small (133 - 149) / (130 - 156) ....[LIFVYMTE][ASGC][^P]{2}L[^P]{2}[IVMTL][GACS][D][^P][FVLMI]. EEEWAREIGAQLRRMADDLNAQYERRR

319 1RJK -> LIG_NRBOX Small (644 - 650) / (640 - 650) [^P]L[^P][^P]LL[^P] KNHPMLMNLLK

320 2ROZ -> LIG_PTB_Apo_2 Small (756 - 763) / (739 - 770) (.[^P].NP.[FY].)|(.[ILVMFY].N..[FY].) DAAVTPEERHLSKMQQNGYENPTYKFFEQMQN

321 3WN7 -> DEG_Kelch_Keap1_2 Small (26 - 32) / (17 - 40) QD.DLGV MDLIDILWRQDIDLGVSREVFDFS

322 3WN7 -> DEG_Kelch_Keap1_2 Small (26 - 32) / (17 - 40) QD.DLGV MDLIDILWRQDIDLGVSREVFDFS

323 2VOI -> LIG_BH_BH3_1 Small (82 - 98) / (78 - 101) ....[LIFVYMTE][ASGC][^P]{2}L[^P]{2}[IVMTL][GACS][D][^P][FVLMI]. SQEEIIHNIARHLAQIGDEMDHNI

324 2VOG -> LIG_BH_BH3_1 Small (130 - 146) / (129 - 150) ....[LIFVYMTE][ASGC][^P]{2}L[^P]{2}[IVMTL][GACS][D][^P][FVLMI]. RAEVQIARKLQCIADQFHRLHT

325 2VOF -> LIG_BH_BH3_1 Small (133 - 149) / (131 - 153) ....[LIFVYMTE][ASGC][^P]{2}L[^P]{2}[IVMTL][GACS][D][^P][FVLMI]. EEWAREIGAQLRRMADDLNAQYE

326 2VOF -> LIG_BH_BH3_1 Small (133 - 149) / (132 - 153) ....[LIFVYMTE][ASGC][^P]{2}L[^P]{2}[IVMTL][GACS][D][^P][FVLMI]. EWAREIGAQLRRMADDLNAQYE

327 3N5U -> DOC_PP1_RVXF_1 Small (871 - 878) / (873 - 879) ..[RK].{0,1}[VIL][^P][FW]. KKLRFDI

328 2OKR -> DOC_MAPK_RevD_3 Small (370 - 386) / (370 - 393) [LIVMPFA].[LIV].{1,2}[LIVMP].{4,6}[LIV]..[RK][RK] IKIKKIEDASNPLLLKRRKKARAL

329 2OKR -> DOC_MAPK_RevD_3 Small (370 - 386) / (370 - 393) [LIVMPFA].[LIV].{1,2}[LIVMP].{4,6}[LIV]..[RK][RK] IKIKKIEDASNPLLLKRRKKARAL

330 4LG6 -> LIG_ANK_PxLPxL_1 Small (500 - 509) / (498 - 509) P.LP.[IL].{1,3}[VLF] HTPRLPTLPKRV

331 3MN7 -> LIG_Actin_WH2_1 Small (464 - 480) / (461 - 480) R..[ILVMF][ILMVF][^P][^P][ILVM].{4,7}L(([KR].)|(NK))[VATI] PSPREQLMESIRKGKELKQI

332 3MN5 -> LIG_Actin_WH2_1 Small (464 - 480) / (461 - 480) R..[ILVMF][ILMVF][^P][^P][ILVM].{4,7}L(([KR].)|(NK))[VATI] PSPREQLMESIRKGKELKQI

333 2A3Z -> LIG_Actin_WH2_1 Small (431 - 447) / (431 - 447) R..[ILVMF][ILMVF][^P][^P][ILVM].{4,7}L(([KR].)|(NK))[VATI] RGALLDQIRQGIQLNKT

334 2P2T -> LIG_Dynein_DLC8_1 Small (128 - 134) / (127 - 135) [^P].[KR].TQT VYTKQTQTT

335 4EWR -> LIG_WD40_WDR5_WIN_1 Small (1493 - 1499) / (1490 - 1499) [SCA]AR[STCA][EQR][PGILVM][HYFQNKRLVI] QTGSARSEGY

336 5IGO -> DEG_COP1_1 Small (354 - 361) / (354 - 361) [STDE]{1,3}.{0,2}[TSDE].{2,3}VP[STDE]G{0,1}[FLIMVYPA] SDQIVPEY

337 5IGO -> DEG_COP1_1 Small (354 - 361) / (354 - 361) [STDE]{1,3}.{0,2}[TSDE].{2,3}VP[STDE]G{0,1}[FLIMVYPA] SDQIVPEY

338 5IGO -> DEG_COP1_1 Small (354 - 361) / (354 - 361) [STDE]{1,3}.{0,2}[TSDE].{2,3}VP[STDE]G{0,1}[FLIMVYPA] SDQIVPEY

339 5IGO -> DEG_COP1_1 Small (354 - 361) / (354 - 361) [STDE]{1,3}.{0,2}[TSDE].{2,3}VP[STDE]G{0,1}[FLIMVYPA] SDQIVPEY

340 5IGQ -> DEG_COP1_1 Small (354 - 361) / (354 - 361) [STDE]{1,3}.{0,2}[TSDE].{2,3}VP[STDE]G{0,1}[FLIMVYPA] SDQIVPEY

341 5IGQ -> DEG_COP1_1 Small (354 - 361) / (354 - 361) [STDE]{1,3}.{0,2}[TSDE].{2,3}VP[STDE]G{0,1}[FLIMVYPA] SDQIVPEY

342 5IGQ -> DEG_COP1_1 Small (354 - 361) / (354 - 361) [STDE]{1,3}.{0,2}[TSDE].{2,3}VP[STDE]G{0,1}[FLIMVYPA] SDQIVPEY

343 5IGQ -> DEG_COP1_1 Small (354 - 361) / (354 - 361) [STDE]{1,3}.{0,2}[TSDE].{2,3}VP[STDE]G{0,1}[FLIMVYPA] SDQIVPEY

344 5IGQ -> DEG_COP1_1 Small (354 - 361) / (354 - 361) [STDE]{1,3}.{0,2}[TSDE].{2,3}VP[STDE]G{0,1}[FLIMVYPA] SDQIVPEY

345 5IGQ -> DEG_COP1_1 Small (354 - 361) / (354 - 364) [STDE]{1,3}.{0,2}[TSDE].{2,3}VP[STDE]G{0,1}[FLIMVYPA] SDQIVPEYQED

346 2VAY -> LIG_CaM_IQ_9 Small (1523 - 1542) / (1522 - 1542) [ACLIVTM][^P][^P][ILVMFCT]Q[^P][^P][^P][RK][^P]{4,5}[RKQ][^P][^P] KFYATFLIQEHFRKFMKRQEE

347 1SHC -> LIG_PTB_Phospho_1 Small (490 - 496) / (489 - 500) (.[^P].NP.(Y))|(.[ILVMFY].N..(Y)) HIIENPQYFSDA

348 2JXC -> LIG_EH_1 Small (312 - 316) / (301 - 340) .NPF. PSVTEASPWRATNPFLNETLQDVQPSPINPFSAFFEEQER

349 2JXC -> LIG_EH_1 Small (328 - 332) / (301 - 340) .NPF. PSVTEASPWRATNPFLNETLQDVQPSPINPFSAFFEEQER

350 1FYR -> LIG_SH2_GRB2 Small (1356 - 1359) / (1356 - 1359) (Y).N. YVNV

351 1FYR -> LIG_SH2_GRB2 Small (1356 - 1359) / (1356 - 1359) (Y).N. YVNV

352 1FYR -> LIG_SH2_GRB2 Small (1356 - 1359) / (1356 - 1359) (Y).N. YVNV

353 1FYR -> LIG_SH2_GRB2 Small (1356 - 1359) / (1356 - 1359) (Y).N. YVNV

354 3KUJ -> LIG_PAM2_1 Small (59 - 71) / (59 - 73) ..[LFP][NS][PIVTAFL].A..(([FY].[PYLF])|(W..)). FVPNVHAAEFVPSFL

355 2FOP -> DOC_USP7_MATH_1 Small (147 - 151) / (145 - 150) [PA][^P][^FYWIL]S[^P] EKPSSS

356 3CS8 -> LIG_NRBOX Small (143 - 149) / (141 - 152) [^P]L[^P][^P]LL[^P] PSLLKKLLLAPA

357 3V30 -> LIG_ANK_PxLPxL_1 Small (173 - 180) / (168 - 183) P.LP.[IL].{1,3}[VLF] TLVSMPPLPGLDLKGS

358 3V31 -> LIG_ANK_PxLPxL_1 Small (349 - 358) / (343 - 359) P.LP.[IL].{1,3}[VLF] LPLYTSPSLPNITLGLP

359 2FOJ -> DOC_USP7_MATH_1 Small (364 - 368) / (361 - 367) [PA][^P][^FYWIL]S[^P] GSRAHSS

360 2FOO -> DOC_USP7_MATH_1 Small (359 - 363) / (358 - 363) [PA][^P][^FYWIL]S[^P] EPGGSR

361 3UXG -> LIG_ANK_PxLPxL_1 Small (349 - 358) / (344 - 359) P.LP.[IL].{1,3}[VLF] PLYTSPSLPNITLGLP

362 3E1R -> LIG_EABR_CEP55_1 Small (797 - 807) / (797 - 809) .A.GPP.{2,3}Y. QAQGPPYPTYPGY

363 4WJO -> LIG_SUMO_SIM_par_1 Small (555 - 566) / (552 - 574) [DEST]{0,5}.[VILPTM][VIL][DESTVILMA][VIL].{0,1}[DEST]{1,10} AEERVVVISSSEDSDAENSSSRE

364 3KUS -> LIG_PAM2_1 Small (109 - 121) / (110 - 123) ..[LFP][NS][PIVTAFL].A..(([FY].[PYLF])|(W..)). NLNPNAKEFVPGVK

365 3KUS -> LIG_PAM2_1 Small (109 - 121) / (111 - 121) ..[LFP][NS][PIVTAFL].A..(([FY].[PYLF])|(W..)). LNPNAKEFVPG

366 2KQS -> LIG_SUMO_SIM_anti_2 Small (732 - 740) / (721 - 740) [DEST]{1,10}.{0,1}[VIL][DESTVILMA][VIL][VILM].[DEST]{0,5} KTSVATQCDPEEIIVLSDSD

367 2KQS -> LIG_SUMO_SIM_par_1 Small (732 - 740) / (721 - 740) [DEST]{0,5}.[VILPTM][VIL][DESTVILMA][VIL].{0,1}[DEST]{1,10} KTSVATQCDPEEIIVLSDSD

368 3DIW -> LIG_PDZ_Class_1 Small (776 - 781) / (773 - 781) ...[ST].[ACVILF]$ QLAWFDTDL

369 3DIW -> LIG_PDZ_Class_1 Small (776 - 781) / (773 - 781) ...[ST].[ACVILF]$ QLAWFDTDL

370 4DAU -> LIG_14-3-3_CanoR_1 Small (7 - 12) / (8 - 13) R[^DE]{0,2}[^DEPG]([ST])(([FWYLMV].)|([^PRIKGN]P)|([^PRIKGN].{2,4}[VILMFWYP])) AMSFQS

371 1YY6 -> DOC_USP7_MATH_2 Small (442 - 448) / (441 - 448) P.E[^P].S[^P] DPGEGPST

372 2AZM -> LIG_BRCT_MDC1_1 Small (139 - 143) / (139 - 143) .(S)..Y$ ASQEY

373 2AZM -> LIG_BRCT_MDC1_1 Small (139 - 143) / (139 - 143) .(S)..Y$ ASQEY

374 2D1K -> LIG_Actin_WH2_2 Small (728 - 744) / (725 - 753) [^R]..((.[ILMVF])|([ILMVF].))[^P][^P][ILVM].{4,7}L(([KR].)|(NK))[VATIGS] TPQGEDMLNAIRRGVKLKKTTTNDRSAPR

375 1XWJ -> LIG_Vh1_VBS_1 Small (1949 - 1967) / (1946 - 1969) [VMIL][MILFYPA][^P][TASKHC][AVSC][^P][^P][ILVM][^P][^P][^P][LMTVI][^P][^P][LMV][ILVMA][^P][^P][AIVLMT] KKELIESARKVSEKVSHVLAALQA

376 3MQR -> DOC_USP7_MATH_1 Small (398 - 402) / (398 - 401) [PA][^P][^FYWIL]S[^P] AHSS

377 3RF3 -> LIG_Vh1_VBS_1 Small (492 - 510) / (488 - 510) [VMIL][MILFYPA][^P][TASKHC][AVSC][^P][^P][ILVM][^P][^P][^P][LMTVI][^P][^P][LMV][ILVMA][^P][^P][AIVLMT] TRETIFEASKKVTNSLSNLISLI

378 3RF3 -> LIG_Vh1_VBS_1 Small (492 - 510) / (488 - 511) [VMIL][MILFYPA][^P][TASKHC][AVSC][^P][^P][ILVM][^P][^P][^P][LMTVI][^P][^P][LMV][ILVMA][^P][^P][AIVLMT] TRETIFEASKKVTNSLSNLISLIG

379 2KOH -> LIG_PDZ_Class_2 Small (779 - 784) / (769 - 784) ...[VLIFY].[ACVILF]$ MLAELYGSDPQEELII

380 2MOW -> LIG_CID_NIM_1 Small (574 - 583) / (573 - 584) [DE][DEN][DEN]D[GDN]Y.P.. DDDEDGYNPYTL

381 3COJ -> LIG_BRCT_BRCA1_1 Small (1262 - 1266) / (1261 - 1270) .(S)..F PQSPTFPEAG

382 3COJ -> LIG_BRCT_BRCA1_1 Small (1262 - 1266) / (1261 - 1270) .(S)..F PQSPTFPEAG

383 3COJ -> LIG_BRCT_BRCA1_1 Small (1262 - 1266) / (1258 - 1270) .(S)..F DSPPQSPTFPEAG

384 3COJ -> LIG_BRCT_BRCA1_1 Small (1262 - 1266) / (1261 - 1270) .(S)..F PQSPTFPEAG

385 3COJ -> LIG_BRCT_BRCA1_1 Small (1262 - 1266) / (1261 - 1267) .(S)..F PQSPTFP

386 3COJ -> LIG_BRCT_BRCA1_1 Small (1262 - 1266) / (1261 - 1270) .(S)..F PQSPTFPEAG

387 3COJ -> LIG_BRCT_BRCA1_1 Small (1262 - 1266) / (1261 - 1267) .(S)..F PQSPTFP

388 3COJ -> LIG_BRCT_BRCA1_1 Small (1262 - 1266) / (1262 - 1266) .(S)..F QSPTF

389 4BXU -> LIG_Pex14_3 Small (62 - 67) / (57 - 71) LV.EF[LM] ASEDELVAEFLQDQN

390 2I3T -> LIG_GLEBS_BUB3_1 Large (378 - 386) / (1 - 395) [EN][FYLW][NSQ].EE[ILMVF][^P][LIVMFA] MKAYAKKRIS...AISRNVYKRV

391 2I3T -> LIG_GLEBS_BUB3_1 Large (378 - 386) / (1 - 395) [EN][FYLW][NSQ].EE[ILMVF][^P][LIVMFA] MKAYAKKRIS...AISRNVYKRV

392 2I3T -> LIG_GLEBS_BUB3_1 Large (378 - 386) / (1 - 395) [EN][FYLW][NSQ].EE[ILMVF][^P][LIVMFA] MKAYAKKRIS...AISRNVYKRV

393 2I3T -> LIG_GLEBS_BUB3_1 Large (378 - 386) / (1 - 395) [EN][FYLW][NSQ].EE[ILMVF][^P][LIVMFA] MKAYAKKRIS...AISRNVYKRV

394 1GO4 -> LIG_MAD2 Large (541 - 549) / (493 - 579) [KR][IV][LV].....P FSREEADTLR...RLRGLLRAME

395 1GO4 -> LIG_MAD2 Large (541 - 549) / (485 - 584) [KR][IV][LV].....P SSAEQSFLFS...LRAMERGGTV

396 1GO4 -> LIG_MAD2 Large (541 - 549) / (493 - 579) [KR][IV][LV].....P FSREEADTLR...RLRGLLRAME

397 1GO4 -> LIG_MAD2 Large (541 - 549) / (487 - 579) [KR][IV][LV].....P AEQSFLFSRE...RLRGLLRAME

398 2ROD -> LIG_BH_BH3_1 Small (19 - 35) / (17 - 43) ....[LIFVYMTE][ASGC][^P]{2}L[^P]{2}[IVMTL][GACS][D][^P][FVLMI]. AELPPEFAAQLRKIGDKVYCTWSAPDI

399 2IV8 -> TRG_AP2beta_CARGO_1 Small (385 - 395) / (386 - 388) [DE].{1,2}F[^P][^P][FL][^P][^P][^P]R IVF

400 2IV8 -> TRG_AP2beta_CARGO_1 Small (385 - 395) / (383 - 396) [DE].{1,2}F[^P][^P][FL][^P][^P][^P]R DDDIVFEDFARQRL

401 5JEJ -> LIG_IRF3_LxIS_1 Small (361 - 366) / (359 - 379) ..L.I(S) QEPELLISGMEKPLPLRTDFS

402 5JEJ -> LIG_IRF3_LxIS_1 Small (361 - 366) / (359 - 368) ..L.I(S) QEPELLISGM

403 5JEK -> LIG_IRF3_LxIS_1 Small (437 - 442) / (435 - 450) ..L.I(S) CFEDLAISASTSLGMG

404 5JEK -> LIG_IRF3_LxIS_1 Small (437 - 442) / (433 - 446) ..L.I(S) SGCFEDLAISASTS

405 1F95 -> LIG_Dynein_DLC8_1 Small (110 - 116) / (108 - 116) [^P].[KR].TQT MSCDKSTQT

406 1F95 -> LIG_Dynein_DLC8_1 Small (110 - 116) / (108 - 116) [^P].[KR].TQT MSCDKSTQT

407 5JEL -> LIG_IRF3_LxIS_1 Small (205 - 210) / (199 - 212) ..L.I(S) SPASLASNLEISQS

408 4MQV -> LIG_RPA_C_Vert Small (12 - 27) / (5 - 30) [KRS]I[^P][^P][NK][KR][^P][^P]A[^P][^P][RKL][RKL][^P][^P][RK] LTEEQRKKIEENRQKALARRAEKLLA

409 4MQV -> LIG_RPA_C_Vert Small (12 - 27) / (5 - 30) [KRS]I[^P][^P][NK][KR][^P][^P]A[^P][^P][RKL][RKL][^P][^P][RK] LTEEQRKKIEENRQKALARRAEKLLA

410 5JER -> LIG_IRF3_LxIS_1 Small (484 - 489) / (482 - 491) ..L.I(S) EEFELLISNS

411 5JER -> LIG_IRF3_LxIS_1 Small (484 - 489) / (482 - 491) ..L.I(S) EEFELLISNS

412 5JER -> LIG_IRF3_LxIS_1 Small (484 - 489) / (482 - 491) ..L.I(S) EEFELLISNS

413 5JER -> LIG_IRF3_LxIS_1 Small (484 - 489) / (482 - 491) ..L.I(S) EEFELLISNS

414 1D0A -> LIG_TRAF2_1 Small (262 - 265) / (262 - 266) [PSAT].[QE]E PIQEE

415 1D0A -> LIG_TRAF2_1 Small (262 - 265) / (262 - 266) [PSAT].[QE]E PIQEE

416 1D0A -> LIG_TRAF2_1 Small (262 - 265) / (262 - 266) [PSAT].[QE]E PIQEE

417 1D0A -> LIG_TRAF2_1 Small (262 - 265) / (262 - 266) [PSAT].[QE]E PIQEE

418 1D0A -> LIG_TRAF2_1 Small (262 - 265) / (262 - 266) [PSAT].[QE]E PIQEE

419 1D0A -> LIG_TRAF2_1 Small (262 - 265) / (262 - 266) [PSAT].[QE]E PIQEE

420 1JD6 -> LIG_BIR_III_3 Small (1 - 5) / (2 - 9) ^M{0,1}A.[AP]. AVPFYLPE

421 2GPO -> LIG_NRBOX Small (379 - 385) / (378 - 387) [^P]L[^P][^P]LL[^P] SLLLHLLKSQ

422 2GPH -> DOC_MAPK_HePTP_8 Small (38 - 50) / (37 - 52) ([LIV][^P][^P][RK]....[LIVMP].[LIV].[LIVMF])|([LIV][^P][^P][RK][RK]G.{4,7}[LIVMP].[LIV].[LIVMF]) RLQERRGSNVALMLDV

423 2PAV -> LIG_PROFILIN_1 Small (204 - 210) / (202 - 214) PPP[PA]P((P[LGP])|([LG]P)) GGPPPAPPLPAAQ

424 2ODD -> LIG_MYND_2 Small (1113 - 1117) / (1109 - 1121) PP.LI TISNPPPLISSAK

425 1CA9 -> LIG_TRAF2_1 Small (424 - 427) / (422 - 428) [PSAT].[QE]E PFSKEEC

426 1CA9 -> LIG_TRAF2_1 Small (424 - 427) / (420 - 428) [PSAT].[QE]E QVPFSKEEC

427 2GBQ -> LIG_SH3_3 Small (1135 - 1141) / (1135 - 1144) ...[PV]..P VPPPVPPRRR

428 2OD8 -> LIG_PCNA_PIPBox_1 Small (38 - 47) / (35 - 45) ((^.{0,3})|(Q)).[^FHWY][ILM][^P][^FHILVWYP][HFM][FMY].. KPKQATLARFF

429 1O9U -> DOC_GSK3_Axin_1 Small (383 - 399) / (383 - 400) V[ED]P[^P][RK]FA[^P]ELI[^P]RLE[^P][VIL] VEPQKFAEELIHRLEAVQ

430 1YBO -> LIG_PDZ_Class_2 Small (193 - 198) / (193 - 198) ...[VLIFY].[ACVILF]$ TNEFYA

431 1YBO -> LIG_PDZ_Class_2 Small (193 - 198) / (195 - 198) ...[VLIFY].[ACVILF]$ EFYA

432 1N4M -> LIG_Rb_pABgroove_1 Small (420 - 428) / (410 - 427) ..[LIMV]..[LM][FY]D. DDYLWGLEAGEGISDLFD

433 1N4M -> LIG_Rb_pABgroove_1 Small (420 - 428) / (410 - 427) ..[LIMV]..[LM][FY]D. DDYLWGLEAGEGISDLFD

434 1N4M -> LIG_Rb_pABgroove_1 Small (420 - 428) / (410 - 421) ..[LIMV]..[LM][FY]D. DDYLWGLEAGEG

435 1CZY -> LIG_TRAF2_2 Small (204 - 209) / (204 - 210) P.Q..D PQQATDD

436 1CZY -> LIG_TRAF2_2 Small (204 - 209) / (204 - 210) P.Q..D PQQATDD

437 2Y9Q -> DOC_MAPK_RevD_3 Small (434 - 448) / (434 - 450) [LIVMPFA].[LIV].{1,2}[LIVMP].{4,6}[LIV]..[RK][RK] MKLSPPCKSRLARRRAL

438 1D01 -> LIG_TRAF2_1 Small (578 - 581) / (576 - 582) [PSAT].[QE]E MLSVEEE

439 1D01 -> LIG_TRAF2_1 Small (578 - 581) / (576 - 582) [PSAT].[QE]E MLSVEEE

440 1D01 -> LIG_TRAF2_1 Small (578 - 581) / (576 - 582) [PSAT].[QE]E MLSVEEE

441 4H3B -> DOC_MAPK_JIP1_4 Small (343 - 349) / (341 - 350) [RK]P[^P][^P]L.[LIVMF] VVRPGSLDLP

442 4H3B -> DOC_MAPK_JIP1_4 Small (343 - 349) / (341 - 350) [RK]P[^P][^P]L.[LIVMF] VVRPGSLDLP

443 2L8J -> LIG_LIR_Gen_1 Large (730 - 735) / (683 - 739) [EDST].{0,2}[WFY]..[ILV] GPLGNEKEEI...EDYIIILPEC

444 4H3Q -> DOC_MAPK_MEF2A_6 Small (6 - 14) / (4 - 15) [RK].{2,4}[LIVMP].[LIV].[LIVMF] RRKPVLPALTIN

445 4H3P -> DOC_MAPK_RevD_3 Small (712 - 726) / (712 - 728) [LIVMPFA].[LIV].{1,2}[LIVMP].{4,6}[LIV]..[RK][RK] PQLKPIESSILAQRRVR

446 4H3P -> DOC_MAPK_RevD_3 Small (712 - 726) / (712 - 727) [LIVMPFA].[LIV].{1,2}[LIVMP].{4,6}[LIV]..[RK][RK] PQLKPIESSILAQRRV

447 1B72 -> LIG_HOMEOBOX Large (180 - 183) / (177 - 264) [FY][DEP]WM ARTFDWMKVK...RMKQKKRERE

448 1OW6 -> LIG_FAT_LD_1 Small (266 - 274) / (263 - 273) [LV][DE][^P][LM][LM][^P][^P]L[^P] TRELDELMASL

449 1OW6 -> LIG_FAT_LD_1 Small (266 - 274) / (263 - 274) [LV][DE][^P][LM][LM][^P][^P]L[^P] TRELDELMASLS

450 2DYH -> DEG_Kelch_Keap1_2 Small (26 - 32) / (24 - 29) QD.DLGV WRQDID

451 5F74 -> LIG_14-3-3_ChREBP_3 Small (120 - 135) / (117 - 136) IR[^P][^P]N[^P][^P]WR[^P]W[YFH][ITML][^P]Y[IVL] RDKIRLNNAIWRAWYIQYVQ

452 3UVK -> LIG_WD40_WDR5_WIN_1 Small (5338 - 5344) / (5337 - 5347) [SCA]AR[STCA][EQR][PGILVM][HYFQNKRLVI] GCARSEPKILT

453 1JD5 -> LIG_BIR_III_3 Small (1 - 5) / (2 - 9) ^M{0,1}A.[AP]. AIAYFIPD

454 3UVO -> LIG_WD40_WDR5_WIN_1 Small (1746 - 1752) / (1746 - 1754) [SCA]AR[STCA][EQR][PGILVM][HYFQNKRLVI] CARSEGFYT

455 3UVL -> LIG_WD40_WDR5_WIN_1 Small (4708 - 4714) / (4707 - 4715) [SCA]AR[STCA][EQR][PGILVM][HYFQNKRLVI] GCARSEPKM

456 2A41 -> LIG_Actin_WH2_1 Small (33 - 49) / (29 - 60) R..[ILVMF][ILMVF][^P][^P][ILVM].{4,7}L(([KR].)|(NK))[VATI] EQAGRNALLSDISKGKKLKKTVTNDRSAPILD

457 2A40 -> LIG_Actin_WH2_1 Small (437 - 453) / (434 - 455) R..[ILVMF][ILMVF][^P][^P][ILVM].{4,7}L(([KR].)|(NK))[VATI] SDARSDLLSAIRQGFQLRRVEE

458 2A40 -> LIG_Actin_WH2_1 Small (437 - 453) / (434 - 455) R..[ILVMF][ILMVF][^P][^P][ILVM].{4,7}L(([KR].)|(NK))[VATI] SDARSDLLSAIRQGFQLRRVEE

459 2KBS -> LIG_PDZ_Class_1 Small (3349 - 3354) / (3347 - 3354) ...[ST].[ACVILF]$ TPLEITEL

460 4LOP -> DOC_MAPK_MEF2A_6 Small (400 - 409) / (385 - 411) [RK].{2,4}[LIVMP].[LIV].[LIVMF] VYPVSVPYSSAQSTSKTSVTLSLVMPS

461 4LOP -> DOC_MAPK_MEF2A_6 Small (400 - 409) / (384 - 412) [RK].{2,4}[LIVMP].[LIV].[LIVMF] RVYPVSVPYSSAQSTSKTSVTLSLVMPSQ

462 4LOP -> DOC_MAPK_MEF2A_6 Small (400 - 409) / (384 - 411) [RK].{2,4}[LIVMP].[LIV].[LIVMF] RVYPVSVPYSSAQSTSKTSVTLSLVMPS

463 4LOP -> DOC_MAPK_MEF2A_6 Small (400 - 409) / (384 - 412) [RK].{2,4}[LIVMP].[LIV].[LIVMF] RVYPVSVPYSSAQSTSKTSVTLSLVMPSQ

464 4IEA -> LIG_14-3-3_CanoR_1 Small (618 - 623) / (618 - 625) R[^DE]{0,2}[^DEPG]([ST])(([FWYLMV].)|([^PRIKGN]P)|([^PRIKGN].{2,4}[VILMFWYP])) RSASEPSL

465 2G30 -> TRG_AP2beta_CARGO_1 Small (256 - 266) / (252 - 267) [DE].{1,2}F[^P][^P][FL][^P][^P][^P]R DDGLDEAFSRLAQSRT

466 4LOO -> DOC_MAPK_MEF2A_6 Small (400 - 409) / (384 - 411) [RK].{2,4}[LIVMP].[LIV].[LIVMF] RVYPVSVPYSSAQSTSKTSVTLSLVMPS

467 1SE0 -> LIG_BIR_III_3 Small (1 - 5) / (2 - 8) ^M{0,1}A.[AP]. AIAYFIP

468 3ML4 -> LIG_PTB_Phospho_1 Small (547 - 553) / (547 - 555) (.[^P].NP.(Y))|(.[ILVMFY].N..(Y)) LHPNPMYQR

469 3ML4 -> LIG_PTB_Phospho_1 Small (547 - 553) / (547 - 555) (.[^P].NP.(Y))|(.[ILVMFY].N..(Y)) LHPNPMYQR

470 3ML4 -> LIG_PTB_Phospho_1 Small (547 - 553) / (547 - 555) (.[^P].NP.(Y))|(.[ILVMFY].N..(Y)) LHPNPMYQR

471 3ML4 -> LIG_PTB_Phospho_1 Small (547 - 553) / (547 - 555) (.[^P].NP.(Y))|(.[ILVMFY].N..(Y)) LHPNPMYQR

472 4ERZ -> LIG_WD40_WDR5_WIN_1 Small (2509 - 2515) / (2504 - 2515) [SCA]AR[STCA][EQR][PGILVM][HYFQNKRLVI] LNPHGAARAEVY

473 4ERZ -> LIG_WD40_WDR5_WIN_1 Small (2509 - 2515) / (2504 - 2515) [SCA]AR[STCA][EQR][PGILVM][HYFQNKRLVI] LNPHGAARAEVY

474 4ERZ -> LIG_WD40_WDR5_WIN_1 Small (2509 - 2515) / (2504 - 2515) [SCA]AR[STCA][EQR][PGILVM][HYFQNKRLVI] LNPHGAARAEVY

475 4ERY -> LIG_WD40_WDR5_WIN_1 Small (4708 - 4714) / (4703 - 4716) [SCA]AR[STCA][EQR][PGILVM][HYFQNKRLVI] VNPTGCARSEPKMS

476 4ERQ -> LIG_WD40_WDR5_WIN_1 Small (5338 - 5344) / (5333 - 5345) [SCA]AR[STCA][EQR][PGILVM][HYFQNKRLVI] INPTGCARSEPKI

477 4ERQ -> LIG_WD40_WDR5_WIN_1 Small (5338 - 5344) / (5333 - 5345) [SCA]AR[STCA][EQR][PGILVM][HYFQNKRLVI] INPTGCARSEPKI

478 4ERQ -> LIG_WD40_WDR5_WIN_1 Small (5338 - 5344) / (5333 - 5345) [SCA]AR[STCA][EQR][PGILVM][HYFQNKRLVI] INPTGCARSEPKI

479 3SOV -> LIG_LRP6_Inhibitor_1 Small (114 - 126) / (115 - 121) ([VILA]..N.I[RK])|([VILA].PN.IG.{0,6}[RK]) LPNAIGR

480 1EE4 -> TRG_NLS_MonoExtC_3 Small (322 - 328) / (320 - 328) [^DE]((K[RK])|(RK))(([^DE][KR])|([KR][^DE]))(([PKR])|([^DE][DE])) PAAKRVKLD

481 1EE4 -> TRG_NLS_MonoExtN_4 Small (320 - 327) / (320 - 328) (([PKR].{0,1}[^DE])|([PKR]))((K[RK])|(RK))(([^DE][KR])|([KR][^DE]))[^DE] PAAKRVKLD

482 1EE4 -> TRG_NLS_MonoExtC_3 Small (322 - 328) / (320 - 328) [^DE]((K[RK])|(RK))(([^DE][KR])|([KR][^DE]))(([PKR])|([^DE][DE])) PAAKRVKLD

483 1EE4 -> TRG_NLS_MonoExtN_4 Small (320 - 327) / (320 - 328) (([PKR].{0,1}[^DE])|([PKR]))((K[RK])|(RK))(([^DE][KR])|([KR][^DE]))[^DE] PAAKRVKLD

484 1EE4 -> TRG_NLS_MonoExtC_3 Small (322 - 328) / (323 - 327) [^DE]((K[RK])|(RK))(([^DE][KR])|([KR][^DE]))(([PKR])|([^DE][DE])) KRVKL

485 1EE4 -> TRG_NLS_MonoExtN_4 Small (320 - 327) / (323 - 327) (([PKR].{0,1}[^DE])|([PKR]))((K[RK])|(RK))(([^DE][KR])|([KR][^DE]))[^DE] KRVKL

486 1EE4 -> TRG_NLS_MonoExtC_3 Small (322 - 328) / (323 - 326) [^DE]((K[RK])|(RK))(([^DE][KR])|([KR][^DE]))(([PKR])|([^DE][DE])) KRVK

487 1EE4 -> TRG_NLS_MonoExtN_4 Small (320 - 327) / (323 - 326) (([PKR].{0,1}[^DE])|([PKR]))((K[RK])|(RK))(([^DE][KR])|([KR][^DE]))[^DE] KRVK

488 3SOQ -> LIG_LRP6_Inhibitor_1 Small (37 - 43) / (38 - 44) ([VILA]..N.I[RK])|([VILA].PN.IG.{0,6}[RK]) NSNAIKN

489 1U7B -> LIG_PCNA_PIPBox_1 Small (337 - 346) / (336 - 348) ((^.{0,3})|(Q)).[^FHWY][ILM][^P][^FHILVWYP][HFM][FMY].. TQGRLDDFFKVTG

490 1DPU -> LIG_RPA_C_Vert Small (73 - 88) / (73 - 88) [KRS]I[^P][^P][NK][KR][^P][^P]A[^P][^P][RKL][RKL][^P][^P][RK] RIQRNKAAALLRLAAR

491 2BUG -> LIG_TPR Small (729 - 732) / (728 - 732) EEVD$ MEEVD

492 1VJ6 -> LIG_PDZ_Class_1 Small (2840 - 2845) / (2840 - 2845) ...[ST].[ACVILF]$ YLVTSV

493 3V2X -> LIG_ANK_PxLPxL_1 Small (4460 - 4468) / (4455 - 4465) P.LP.[IL].{1,3}[VLF] LLPTLPKLPSL

494 3V2O -> LIG_ANK_PxLPxL_1 Small (4460 - 4468) / (4456 - 4466) P.LP.[IL].{1,3}[VLF] LPTLPKLPSLS

495 1Z5S -> LIG_SUMO_SIM_anti_2 Large (2629 - 2637) / (200 - 2693) [DEST]{1,10}.{0,1}[VIL][DESTVILMA][VIL][VILM].[DEST]{0,5} SLEWNSCVVQ...LNGKLYLDGS

496 1Z5S -> LIG_SUMO_SIM_par_1 Large (2631 - 2637) / (200 - 2693) [DEST]{0,5}.[VILPTM][VIL][DESTVILMA][VIL].{0,1}[DEST]{1,10} SLEWNSCVVQ...LNGKLYLDGS

497 3KTR -> LIG_PAM2_1 Small (912 - 924) / (913 - 928) ..[LFP][NS][PIVTAFL].A..(([FY].[PYLF])|(W..)). TLNPNAKEFNPRSFSQ

498 1N7F -> LIG_PDZ_Class_2 Small (1197 - 1202) / (1195 - 1202) ...[VLIFY].[ACVILF]$ ATVRTYSC

499 1N7F -> LIG_PDZ_Class_2 Small (1197 - 1202) / (1195 - 1202) ...[VLIFY].[ACVILF]$ ATVRTYSC

500 2KPL -> LIG_PDZ_Class_1 Small (153 - 158) / (148 - 158) ...[ST].[ACVILF]$ RSSRTRRETQL

501 2XL2 -> LIG_WD40_WDR5_VDV_1 Small (374 - 377) / (372 - 381) [ED].{0,3}[VIL]D[VI] DEEVDVTSVD

502 2XL2 -> LIG_WD40_WDR5_VDV_1 Small (374 - 377) / (372 - 381) [ED].{0,3}[VIL]D[VI] DEEVDVTSVD

503 2V3S -> DOC_SPAK_OSR1_1 Small (1016 - 1020) / (1015 - 1019) RF[^P][IV]. GRFQV

504 2V3S -> DOC_SPAK_OSR1_1 Small (1016 - 1020) / (1015 - 1020) RF[^P][IV]. GRFQVT

505 4EOY -> LIG_LIR_Apic_2 Small (102 - 108) / (103 - 110) [EDST].{0,2}[WFY]..P NDWLLPSY

506 4EOY -> LIG_LIR_Apic_2 Small (102 - 108) / (103 - 110) [EDST].{0,2}[WFY]..P NDWLLPSY

507 4EOY -> LIG_LIR_Apic_2 Small (102 - 108) / (103 - 110) [EDST].{0,2}[WFY]..P NDWLLPSY

508 2JO9 -> LIG_WW_1 Small (57 - 60) / (54 - 62) PP.Y EEPPPPYED

509 3ZGC -> DEG_Kelch_Keap1_1 Large (77 - 82) / (1 - 82) [DNS].[DES][TNS]GE MMDLELPPPG...QLQLDEETGE

